doping	1950_1954	aantoonbare	Bram	-1	Jesper	0	-0.5000
doping	1950_1954	aardstralen	Bram	-1	Jesper	0	-0.5000
doping	1950_1954	abortus	Bram	-1	Jesper	0	-0.5000
doping	1950_1954	afbetalingswezen	Bram	-1	Jesper	0	-0.5000
doping	1950_1954	afweerstoffen	Bram	-1	Jesper	0	-0.5000
doping	1950_1954	alcohol	Bram	-1	Jesper	0	-0.5000
doping	1950_1954	alcoholmisbruik	Bram	-1	Jesper	0	-0.5000
doping	1950_1954	alkohol	Bram	-1	Jesper	0	-0.5000
doping	1950_1954	allergische	Bram	-1	Jesper	0	-0.5000
doping	1950_1954	antibiotica	Bram	-1	Jesper	2	0.5000
doping	1950_1954	autodiefstal	Bram	-1	Jesper	0	-0.5000
doping	1950_1954	aversie	Bram	-1	Jesper	0	-0.5000
doping	1950_1954	barthianisme	Bram	-1	Jesper	0	-0.5000
doping	1950_1954	begrijpelijker	Bram	-1	Jesper	0	-0.5000
doping	1950_1954	belastingfraude	Bram	-1	Jesper	0	-0.5000
doping	1950_1954	belastingontduiking	Bram	-1	Jesper	0	-0.5000
doping	1950_1954	belediging	Bram	-1	Jesper	0	-0.5000
doping	1950_1954	bestrijdingsmiddelen	Bram	-1	Jesper	0	-0.5000
doping	1950_1954	beunhazerij	Bram	-1	Jesper	0	-0.5000
doping	1950_1954	bigamie	Bram	-1	Jesper	0	-0.5000
doping	1950_1954	bijproducten	Bram	-1	Jesper	0	-0.5000
doping	1950_1954	bijprodukten	Bram	-1	Jesper	0	-0.5000
doping	1950_1954	binnenkrijgen	Bram	-1	Jesper	0	-0.5000
doping	1950_1954	bloedwijn	Bram	-1	Jesper	0	-0.5000
doping	1950_1954	boerenbedrog	Bram	-1	Jesper	0	-0.5000
doping	1950_1954	classificeren	Bram	-1	Jesper	0	-0.5000
doping	1950_1954	collaboratie	Bram	-1	Jesper	0	-0.5000
doping	1950_1954	conjunctuurpolitieke	Bram	-1	Jesper	0	-0.5000
doping	1950_1954	contractbreuk	Bram	-1	Jesper	0	-0.5000
doping	1950_1954	corruptie	Bram	-1	Jesper	0	-0.5000
doping	1950_1954	deelbelang	Bram	-1	Jesper	0	-0.5000
doping	1950_1954	desertie	Bram	-1	Jesper	0	-0.5000
doping	1950_1954	dezerzijds	Bram	-1	Jesper	0	-0.5000
doping	1950_1954	diepvriesprodukten	Bram	-1	Jesper	0	-0.5000
doping	1950_1954	dierenmishandeling	Bram	-1	Jesper	0	-0.5000
doping	1950_1954	dope	Bram	-1	Jesper	0	-0.5000
doping	1950_1954	doping	Bram	-1	Jesper	2	0.5000
doping	1950_1954	dopinggebruik	Bram	-1	Jesper	0	-0.5000
doping	1950_1954	drankmisbruik	Bram	-1	Jesper	0	-0.5000
doping	1950_1954	edgverdrag	Bram	-1	Jesper	0	-0.5000
doping	1950_1954	eetwaren	Bram	-1	Jesper	0	-0.5000
doping	1950_1954	euromarktverdrag	Bram	-1	Jesper	0	-0.5000
doping	1950_1954	excessen	Bram	-1	Jesper	0	-0.5000
doping	1950_1954	flessentrekkerij	Bram	-1	Jesper	0	-0.5000
doping	1950_1954	focale	Bram	-1	Jesper	0	-0.5000
doping	1950_1954	formateurschap	Bram	-1	Jesper	0	-0.5000
doping	1950_1954	garantieprijsbeleid	Bram	-1	Jesper	0	-0.5000
doping	1950_1954	gecoupeerd	Bram	-1	Jesper	0	-0.5000
doping	1950_1954	geldmakerij	Bram	-1	Jesper	0	-0.5000
doping	1950_1954	geloochend	Bram	-1	Jesper	0	-0.5000
doping	1950_1954	geneesmiddel	Bram	-1	Jesper	0	-0.5000
doping	1950_1954	geneesmiddelen	Bram	-1	Jesper	0	-0.5000
doping	1950_1954	generaalverdrag	Bram	-1	Jesper	0	-0.5000
doping	1950_1954	goedgepraat	Bram	-1	Jesper	0	-0.5000
doping	1950_1954	grondstoffen	Bram	-1	Jesper	0	-0.5000
doping	1950_1954	haaruitval	Bram	-1	Jesper	0	-0.5000
doping	1950_1954	heling	Bram	-1	Jesper	0	-0.5000
doping	1950_1954	hetteriem	Bram	-1	Jesper	0	-0.5000
doping	1950_1954	hormonen	Bram	-1	Jesper	0	-0.5000
doping	1950_1954	hormoonpreparaten	Bram	-1	Jesper	1	0.0000
doping	1950_1954	huisvredebreuk	Bram	-1	Jesper	0	-0.5000
doping	1950_1954	huurprobleem	Bram	-1	Jesper	0	-0.5000
doping	1950_1954	huurvraagstuk	Bram	-1	Jesper	0	-0.5000
doping	1950_1954	hypothetisch	Bram	-1	Jesper	0	-0.5000
doping	1950_1954	ijswegencentrales	Bram	-1	Jesper	0	-0.5000
doping	1950_1954	indiscretie	Bram	-1	Jesper	0	-0.5000
doping	1950_1954	insecticiden	Bram	-1	Jesper	0	-0.5000
doping	1950_1954	insubordinatie	Bram	-1	Jesper	0	-0.5000
doping	1950_1954	kaalhoofdigheid	Bram	-1	Jesper	0	-0.5000
doping	1950_1954	kalknagels	Bram	-1	Jesper	0	-0.5000
doping	1950_1954	kalmeringsmiddelen	Bram	-1	Jesper	0	-0.5000
doping	1950_1954	kankerverwekkende	Bram	-1	Jesper	0	-0.5000
doping	1950_1954	kartelafspraken	Bram	-1	Jesper	0	-0.5000
doping	1950_1954	kleurstoffen	Bram	-1	Jesper	0	-0.5000
doping	1950_1954	koppelbazen	Bram	-1	Jesper	0	-0.5000
doping	1950_1954	kruidenierswaren	Bram	-1	Jesper	0	-0.5000
doping	1950_1954	kunstharsen	Bram	-1	Jesper	0	-0.5000
doping	1950_1954	kwakzalverij	Bram	-1	Jesper	0	-0.5000
doping	1950_1954	landbouwvraagstuk	Bram	-1	Jesper	0	-0.5000
doping	1950_1954	landloperij	Bram	-1	Jesper	0	-0.5000
doping	1950_1954	landverraad	Bram	-1	Jesper	0	-0.5000
doping	1950_1954	levensmiddelen	Bram	-1	Jesper	0	-0.5000
doping	1950_1954	limonades	Bram	-1	Jesper	0	-0.5000
doping	1950_1954	loodvergiftiging	Bram	-1	Jesper	0	-0.5000
doping	1950_1954	maagzuur	Bram	-1	Jesper	0	-0.5000
doping	1950_1954	machtsmiddel	Bram	-1	Jesper	0	-0.5000
doping	1950_1954	majesteitsschennis	Bram	-1	Jesper	0	-0.5000
doping	1950_1954	managerziekte	Bram	-1	Jesper	0	-0.5000
doping	1950_1954	medicamenten	Bram	-1	Jesper	2	0.5000
doping	1950_1954	meineed	Bram	-1	Jesper	0	-0.5000
doping	1950_1954	meststoffen	Bram	-1	Jesper	0	-0.5000
doping	1950_1954	middenoosten	Bram	-1	Jesper	0	-0.5000
doping	1950_1954	mishandeling	Bram	-1	Jesper	0	-0.5000
doping	1950_1954	misleiding	Bram	-1	Jesper	0	-0.5000
doping	1950_1954	misleidingen	Bram	-1	Jesper	0	-0.5000
doping	1950_1954	narcotische	Bram	-1	Jesper	2	0.5000
doping	1950_1954	natuurwet	Bram	-1	Jesper	0	-0.5000
doping	1950_1954	ondeugdeiyk	Bram	-1	Jesper	0	-0.5000
doping	1950_1954	onsportiviteit	Bram	-1	Jesper	0	-0.5000
doping	1950_1954	ontslagrecht	Bram	-1	Jesper	0	-0.5000
doping	1950_1954	ontwapeningsprobleem	Bram	-1	Jesper	0	-0.5000
doping	1950_1954	ontwapeningsvraagstuk	Bram	-1	Jesper	0	-0.5000
doping	1950_1954	oorlogsmisdaden	Bram	-1	Jesper	0	-0.5000
doping	1950_1954	oorlogsvraagstuk	Bram	-1	Jesper	0	-0.5000
doping	1950_1954	oorwaarde	Bram	-1	Jesper	0	-0.5000
doping	1950_1954	oplichterij	Bram	-1	Jesper	0	-0.5000
doping	1950_1954	oplichting	Bram	-1	Jesper	0	-0.5000
doping	1950_1954	opruiing	Bram	-1	Jesper	0	-0.5000
doping	1950_1954	opzettelijke	Bram	-1	Jesper	0	-0.5000
doping	1950_1954	overgevoeligheid	Bram	-1	Jesper	0	-0.5000
doping	1950_1954	overkreditering	Bram	-1	Jesper	0	-0.5000
doping	1950_1954	overtreding	Bram	-1	Jesper	0	-0.5000
doping	1950_1954	partijwezen	Bram	-1	Jesper	0	-0.5000
doping	1950_1954	penicilline	Bram	-1	Jesper	0	-0.5000
doping	1950_1954	pervitine	Bram	-1	Jesper	2	0.5000
doping	1950_1954	poedervormige	Bram	-1	Jesper	0	-0.5000
doping	1950_1954	politievraagstuk	Bram	-1	Jesper	0	-0.5000
doping	1950_1954	polygamie	Bram	-1	Jesper	0	-0.5000
doping	1950_1954	pornografie	Bram	-1	Jesper	0	-0.5000
doping	1950_1954	praematuur	Bram	-1	Jesper	0	-0.5000
doping	1950_1954	prekerig	Bram	-1	Jesper	0	-0.5000
doping	1950_1954	preparaten	Bram	-1	Jesper	0	-0.5000
doping	1950_1954	prestigeoverwegingen	Bram	-1	Jesper	0	-0.5000
doping	1950_1954	prijsopdrijvingen	Bram	-1	Jesper	0	-0.5000
doping	1950_1954	reinigingsmiddelen	Bram	-1	Jesper	0	-0.5000
doping	1950_1954	reukstoffen	Bram	-1	Jesper	0	-0.5000
doping	1950_1954	rhesusfactor	Bram	-1	Jesper	0	-0.5000
doping	1950_1954	rookartikelen	Bram	-1	Jesper	0	-0.5000
doping	1950_1954	rookgordijnen	Bram	-1	Jesper	0	-0.5000
doping	1950_1954	rookwaren	Bram	-1	Jesper	0	-0.5000
doping	1950_1954	ruimtevrees	Bram	-1	Jesper	0	-0.5000
doping	1950_1954	saarprobleem	Bram	-1	Jesper	0	-0.5000
doping	1950_1954	saarstatuut	Bram	-1	Jesper	0	-0.5000
doping	1950_1954	saarverdrag	Bram	-1	Jesper	0	-0.5000
doping	1950_1954	saarvraagstuk	Bram	-1	Jesper	0	-0.5000
doping	1950_1954	schaking	Bram	-1	Jesper	0	-0.5000
doping	1950_1954	scheurbuik	Bram	-1	Jesper	0	-0.5000
doping	1950_1954	sigarettensmokkel	Bram	-1	Jesper	0	-0.5000
doping	1950_1954	slaapmiddelen	Bram	-1	Jesper	0	-0.5000
doping	1950_1954	smaad	Bram	-1	Jesper	0	-0.5000
doping	1950_1954	smaadschrift	Bram	-1	Jesper	0	-0.5000
doping	1950_1954	spiritualiën	Bram	-1	Jesper	0	-0.5000
doping	1950_1954	sportverdwazing	Bram	-1	Jesper	0	-0.5000
doping	1950_1954	spuitmiddel	Bram	-1	Jesper	0	-0.5000
doping	1950_1954	stoffen	Bram	-1	Jesper	0	-0.5000
doping	1950_1954	strafrechterlijke	Bram	-1	Jesper	0	-0.5000
doping	1950_1954	streptomycine	Bram	-1	Jesper	0	-0.5000
doping	1950_1954	strijdmethode	Bram	-1	Jesper	0	-0.5000
doping	1950_1954	subsidiebeleid	Bram	-1	Jesper	0	-0.5000
doping	1950_1954	substanties	Bram	-1	Jesper	0	-0.5000
doping	1950_1954	suezgeschil	Bram	-1	Jesper	0	-0.5000
doping	1950_1954	suezprobleem	Bram	-1	Jesper	0	-0.5000
doping	1950_1954	suikerwerk	Bram	-1	Jesper	0	-0.5000
doping	1950_1954	sulfapreparaten	Bram	-1	Jesper	0	-0.5000
doping	1950_1954	sulfaverbindingen	Bram	-1	Jesper	0	-0.5000
doping	1950_1954	symphonicus	Bram	-1	Jesper	0	-0.5000
doping	1950_1954	syntetische	Bram	-1	Jesper	0	-0.5000
doping	1950_1954	tabaksartikelen	Bram	-1	Jesper	0	-0.5000
doping	1950_1954	terechtstonden	Bram	-1	Jesper	0	-0.5000
doping	1950_1954	textielgoederen	Bram	-1	Jesper	0	-0.5000
doping	1950_1954	tijdbesparing	Bram	-1	Jesper	0	-0.5000
doping	1950_1954	uitlokking	Bram	-1	Jesper	0	-0.5000
doping	1950_1954	uitputtend	Bram	-1	Jesper	0	-0.5000
doping	1950_1954	vaccins	Bram	-1	Jesper	0	-0.5000
doping	1950_1954	vandalisme	Bram	-1	Jesper	0	-0.5000
doping	1950_1954	veevoeders	Bram	-1	Jesper	0	-0.5000
doping	1950_1954	veeziekten	Bram	-1	Jesper	0	-0.5000
doping	1950_1954	veiligheidsprobleem	Bram	-1	Jesper	0	-0.5000
doping	1950_1954	verfstoffen	Bram	-1	Jesper	0	-0.5000
doping	1950_1954	vergiften	Bram	-1	Jesper	0	-0.5000
doping	1950_1954	verkeersregelen	Bram	-1	Jesper	0	-0.5000
doping	1950_1954	vermogensdelicten	Bram	-1	Jesper	0	-0.5000
doping	1950_1954	verpakkingsmaterialen	Bram	-1	Jesper	0	-0.5000
doping	1950_1954	verslaving	Bram	-1	Jesper	0	-0.5000
doping	1950_1954	verzachtend	Bram	-1	Jesper	0	-0.5000
doping	1950_1954	virulent	Bram	-1	Jesper	0	-0.5000
doping	1950_1954	vleeswaren	Bram	-1	Jesper	0	-0.5000
doping	1950_1954	vloeistoffen	Bram	-1	Jesper	0	-0.5000
doping	1950_1954	vluchtelingenprobleem	Bram	-1	Jesper	0	-0.5000
doping	1950_1954	vluchtelingenvraagstuk	Bram	-1	Jesper	0	-0.5000
doping	1950_1954	voedermiddelen	Bram	-1	Jesper	0	-0.5000
doping	1950_1954	voedingsmiddelen	Bram	-1	Jesper	0	-0.5000
doping	1950_1954	voedingsstoffen	Bram	-1	Jesper	0	-0.5000
doping	1950_1954	voetbaltennis	Bram	-1	Jesper	0	-0.5000
doping	1950_1954	voorbehoedmiddelen	Bram	-1	Jesper	0	-0.5000
doping	1950_1954	voorbehoedsmiddel	Bram	-1	Jesper	0	-0.5000
doping	1950_1954	vrijheidsberoving	Bram	-1	Jesper	0	-0.5000
doping	1950_1954	waaghalzerij	Bram	-1	Jesper	0	-0.5000
doping	1950_1954	wagenziekte	Bram	-1	Jesper	0	-0.5000
doping	1950_1954	wederrechtelijke	Bram	-1	Jesper	0	-0.5000
doping	1950_1954	wederspannigheid	Bram	-1	Jesper	0	-0.5000
doping	1950_1954	weerspreken	Bram	-1	Jesper	0	-0.5000
doping	1950_1954	werkweigering	Bram	-1	Jesper	0	-0.5000
doping	1950_1954	woordspel	Bram	-1	Jesper	0	-0.5000
doping	1950_1954	zakkenrollerij	Bram	-1	Jesper	0	-0.5000
doping	1955_1959	aantoonbare	Bram	-1	Jesper	0	-0.5000
doping	1955_1959	aardstralen	Bram	-1	Jesper	0	-0.5000
doping	1955_1959	abortus	Bram	-1	Jesper	0	-0.5000
doping	1955_1959	afbetalingswezen	Bram	-1	Jesper	0	-0.5000
doping	1955_1959	afweermiddel	Bram	-1	Jesper	0	-0.5000
doping	1955_1959	afweerstoffen	Bram	-1	Jesper	0	-0.5000
doping	1955_1959	alcohol	Bram	-1	Jesper	2	0.5000
doping	1955_1959	alcoholmisbruik	Bram	-1	Jesper	0	-0.5000
doping	1955_1959	alkohol	Bram	-1	Jesper	0	-0.5000
doping	1955_1959	allergische	Bram	-1	Jesper	0	-0.5000
doping	1955_1959	amfetaminen	Bram	-1	Jesper	2	0.5000
doping	1955_1959	amphetamine	Bram	-1	Jesper	2	0.5000
doping	1955_1959	antibiotica	Bram	-1	Jesper	2	0.5000
doping	1955_1959	anticonceptionele	Bram	-1	Jesper	0	-0.5000
doping	1955_1959	atoomdeeltjes	Bram	-1	Jesper	0	-0.5000
doping	1955_1959	atoomkrachten	Bram	-1	Jesper	0	-0.5000
doping	1955_1959	autodiefstal	Bram	-1	Jesper	0	-0.5000
doping	1955_1959	aversie	Bram	-1	Jesper	0	-0.5000
doping	1955_1959	baarlijke	Bram	-1	Jesper	0	-0.5000
doping	1955_1959	bacteriedodende	Bram	-1	Jesper	0	-0.5000
doping	1955_1959	barthianisme	Bram	-1	Jesper	0	-0.5000
doping	1955_1959	bedrijfsbeleid	Bram	-1	Jesper	0	-0.5000
doping	1955_1959	begrijpelijker	Bram	-1	Jesper	0	-0.5000
doping	1955_1959	belastingfraude	Bram	-1	Jesper	0	-0.5000
doping	1955_1959	belastingontduiking	Bram	-1	Jesper	0	-0.5000
doping	1955_1959	belediging	Bram	-1	Jesper	0	-0.5000
doping	1955_1959	bestralingen	Bram	-1	Jesper	0	-0.5000
doping	1955_1959	bestrijdingsmiddel	Bram	-1	Jesper	0	-0.5000
doping	1955_1959	bestrijdingsmiddelen	Bram	-1	Jesper	0	-0.5000
doping	1955_1959	beunhazerij	Bram	-1	Jesper	0	-0.5000
doping	1955_1959	bewijsmateriaal	Bram	-1	Jesper	0	-0.5000
doping	1955_1959	bewustzijnsverruimende	Bram	-1	Jesper	0	-0.5000
doping	1955_1959	bezitsvormingsbeleid	Bram	-1	Jesper	0	-0.5000
doping	1955_1959	bigamie	Bram	-1	Jesper	0	-0.5000
doping	1955_1959	bijproducten	Bram	-1	Jesper	0	-0.5000
doping	1955_1959	bijprodukten	Bram	-1	Jesper	0	-0.5000
doping	1955_1959	bijwerkingen	Bram	-1	Jesper	0	-0.5000
doping	1955_1959	binnenkrijgen	Bram	-1	Jesper	0	-0.5000
doping	1955_1959	bloeddrukverhoging	Bram	-1	Jesper	0	-0.5000
doping	1955_1959	bloedwijn	Bram	-1	Jesper	0	-0.5000
doping	1955_1959	boerenbedrog	Bram	-1	Jesper	0	-0.5000
doping	1955_1959	boorzuur	Bram	-1	Jesper	0	-0.5000
doping	1955_1959	classificeren	Bram	-1	Jesper	0	-0.5000
doping	1955_1959	conjunctuurpolitieke	Bram	-1	Jesper	0	-0.5000
doping	1955_1959	conjunctuurverloop	Bram	-1	Jesper	0	-0.5000
doping	1955_1959	contractbreuk	Bram	-1	Jesper	0	-0.5000
doping	1955_1959	contróle	Bram	-1	Jesper	0	-0.5000
doping	1955_1959	corruptie	Bram	-1	Jesper	0	-0.5000
doping	1955_1959	darmaandoeningen	Bram	-1	Jesper	0	-0.5000
doping	1955_1959	deelbelang	Bram	-1	Jesper	0	-0.5000
doping	1955_1959	diepvriesprodukten	Bram	-1	Jesper	0	-0.5000
doping	1955_1959	dierenmishandeling	Bram	-1	Jesper	0	-0.5000
doping	1955_1959	dlerentuindieren	Bram	-1	Jesper	0	-0.5000
doping	1955_1959	dope	Bram	-1	Jesper	0	-0.5000
doping	1955_1959	doping	Bram	-1	Jesper	2	0.5000
doping	1955_1959	dopinggebruik	Bram	-1	Jesper	0	-0.5000
doping	1955_1959	drankmisbruik	Bram	-1	Jesper	0	-0.5000
doping	1955_1959	echtscheidingsrecht	Bram	-1	Jesper	0	-0.5000
doping	1955_1959	echtscheidingsvraagstuk	Bram	-1	Jesper	0	-0.5000
doping	1955_1959	edgverdrag	Bram	-1	Jesper	0	-0.5000
doping	1955_1959	eetwaren	Bram	-1	Jesper	0	-0.5000
doping	1955_1959	euromarktverdrag	Bram	-1	Jesper	0	-0.5000
doping	1955_1959	excessen	Bram	-1	Jesper	0	-0.5000
doping	1955_1959	flessentrekkerij	Bram	-1	Jesper	0	-0.5000
doping	1955_1959	focale	Bram	-1	Jesper	0	-0.5000
doping	1955_1959	formateurschap	Bram	-1	Jesper	0	-0.5000
doping	1955_1959	garantieprijsbeleid	Bram	-1	Jesper	0	-0.5000
doping	1955_1959	geboorteregeling	Bram	-1	Jesper	0	-0.5000
doping	1955_1959	geestverruimende	Bram	-1	Jesper	0	-0.5000
doping	1955_1959	geldmakerij	Bram	-1	Jesper	0	-0.5000
doping	1955_1959	geloochend	Bram	-1	Jesper	0	-0.5000
doping	1955_1959	geneesmiddel	Bram	-1	Jesper	0	-0.5000
doping	1955_1959	geneesmiddelen	Bram	-1	Jesper	0	-0.5000
doping	1955_1959	geschiedenislesje	Bram	-1	Jesper	0	-0.5000
doping	1955_1959	gestapomethoden	Bram	-1	Jesper	0	-0.5000
doping	1955_1959	gezinsbedrijf	Bram	-1	Jesper	0	-0.5000
doping	1955_1959	giftigheid	Bram	-1	Jesper	0	-0.5000
doping	1955_1959	gordelroos	Bram	-1	Jesper	0	-0.5000
doping	1955_1959	grondstoffen	Bram	-1	Jesper	0	-0.5000
doping	1955_1959	haaruitval	Bram	-1	Jesper	0	-0.5000
doping	1955_1959	heling	Bram	-1	Jesper	0	-0.5000
doping	1955_1959	hetteriem	Bram	-1	Jesper	0	-0.5000
doping	1955_1959	homoseksualiteit	Bram	-1	Jesper	0	-0.5000
doping	1955_1959	hormonen	Bram	-1	Jesper	0	-0.5000
doping	1955_1959	hormoon	Bram	-1	Jesper	0	-0.5000
doping	1955_1959	hormoonpreparaten	Bram	-1	Jesper	1	0.0000
doping	1955_1959	hoteldiefstallen	Bram	-1	Jesper	0	-0.5000
doping	1955_1959	huidziekte	Bram	-1	Jesper	0	-0.5000
doping	1955_1959	huisvredebreuk	Bram	-1	Jesper	0	-0.5000
doping	1955_1959	huurbeleid	Bram	-1	Jesper	0	-0.5000
doping	1955_1959	huurprobleem	Bram	-1	Jesper	0	-0.5000
doping	1955_1959	huurvraagstuk	Bram	-1	Jesper	0	-0.5000
doping	1955_1959	ijswegencentrales	Bram	-1	Jesper	0	-0.5000
doping	1955_1959	indiscretie	Bram	-1	Jesper	0	-0.5000
doping	1955_1959	insecticiden	Bram	-1	Jesper	0	-0.5000
doping	1955_1959	insekticiden	Bram	-1	Jesper	0	-0.5000
doping	1955_1959	insubordinatie	Bram	-1	Jesper	0	-0.5000
doping	1955_1959	intrinsiek	Bram	-1	Jesper	0	-0.5000
doping	1955_1959	inwerkingtreden	Bram	-1	Jesper	0	-0.5000
doping	1955_1959	jaarbeursbestuur	Bram	-1	Jesper	0	-0.5000
doping	1955_1959	jeugdsparen	Bram	-1	Jesper	0	-0.5000
doping	1955_1959	kaalhoofdigheid	Bram	-1	Jesper	0	-0.5000
doping	1955_1959	kaaswei	Bram	-1	Jesper	0	-0.5000
doping	1955_1959	kabinetsstandpunt	Bram	-1	Jesper	0	-0.5000
doping	1955_1959	kalknagels	Bram	-1	Jesper	0	-0.5000
doping	1955_1959	kalmeringsmiddelen	Bram	-1	Jesper	0	-0.5000
doping	1955_1959	kanker	Bram	-1	Jesper	0	-0.5000
doping	1955_1959	kankerverwekkende	Bram	-1	Jesper	0	-0.5000
doping	1955_1959	kartelafspraken	Bram	-1	Jesper	0	-0.5000
doping	1955_1959	kernenbeleid	Bram	-1	Jesper	0	-0.5000
doping	1955_1959	kernversmelting	Bram	-1	Jesper	0	-0.5000
doping	1955_1959	kleiboeren	Bram	-1	Jesper	0	-0.5000
doping	1955_1959	kleurstoffen	Bram	-1	Jesper	0	-0.5000
doping	1955_1959	koninkrijksstatuut	Bram	-1	Jesper	0	-0.5000
doping	1955_1959	koppelbazen	Bram	-1	Jesper	0	-0.5000
doping	1955_1959	kruideniersmentaliteit	Bram	-1	Jesper	0	-0.5000
doping	1955_1959	kruidenierswaren	Bram	-1	Jesper	0	-0.5000
doping	1955_1959	kunstharsen	Bram	-1	Jesper	0	-0.5000
doping	1955_1959	kwakzalverij	Bram	-1	Jesper	0	-0.5000
doping	1955_1959	laakbare	Bram	-1	Jesper	0	-0.5000
doping	1955_1959	landbouwprijsbeleid	Bram	-1	Jesper	0	-0.5000
doping	1955_1959	landbouwvraagstuk	Bram	-1	Jesper	0	-0.5000
doping	1955_1959	landloperij	Bram	-1	Jesper	0	-0.5000
doping	1955_1959	landloperü	Bram	-1	Jesper	0	-0.5000
doping	1955_1959	landverraad	Bram	-1	Jesper	0	-0.5000
doping	1955_1959	lauwerszeeproject	Bram	-1	Jesper	0	-0.5000
doping	1955_1959	levensmiddelen	Bram	-1	Jesper	0	-0.5000
doping	1955_1959	lichtgas	Bram	-1	Jesper	0	-0.5000
doping	1955_1959	limonades	Bram	-1	Jesper	0	-0.5000
doping	1955_1959	loodvergiftiging	Bram	-1	Jesper	0	-0.5000
doping	1955_1959	loonvraagstuk	Bram	-1	Jesper	0	-0.5000
doping	1955_1959	lsd	Bram	-1	Jesper	0	-0.5000
doping	1955_1959	luchtfotografie	Bram	-1	Jesper	0	-0.5000
doping	1955_1959	maagzuur	Bram	-1	Jesper	0	-0.5000
doping	1955_1959	machtsmiddel	Bram	-1	Jesper	0	-0.5000
doping	1955_1959	majesteitsschennis	Bram	-1	Jesper	0	-0.5000
doping	1955_1959	managerziekte	Bram	-1	Jesper	0	-0.5000
doping	1955_1959	margarinebesluit	Bram	-1	Jesper	0	-0.5000
doping	1955_1959	meclizine	Bram	-1	Jesper	0	-0.5000
doping	1955_1959	mededaderschap	Bram	-1	Jesper	0	-0.5000
doping	1955_1959	medicament	Bram	1	Jesper	2	1.5000
doping	1955_1959	medicamenten	Bram	1	Jesper	2	1.5000
doping	1955_1959	meineed	Bram	-1	Jesper	0	-0.5000
doping	1955_1959	melkprijsbeleid	Bram	-1	Jesper	0	-0.5000
doping	1955_1959	mescaline	Bram	-1	Jesper	0	-0.5000
doping	1955_1959	meststoffen	Bram	-1	Jesper	0	-0.5000
doping	1955_1959	middenoosten	Bram	-1	Jesper	0	-0.5000
doping	1955_1959	misdragingen	Bram	-1	Jesper	0	-0.5000
doping	1955_1959	misleiding	Bram	-1	Jesper	0	-0.5000
doping	1955_1959	misleidingen	Bram	-1	Jesper	0	-0.5000
doping	1955_1959	narcotische	Bram	-1	Jesper	2	0.5000
doping	1955_1959	natrappen	Bram	-1	Jesper	0	-0.5000
doping	1955_1959	natuurwet	Bram	-1	Jesper	0	-0.5000
doping	1955_1959	oestrogeen	Bram	-1	Jesper	0	-0.5000
doping	1955_1959	ondeugdeiyk	Bram	-1	Jesper	0	-0.5000
doping	1955_1959	onsportiviteit	Bram	-1	Jesper	0	-0.5000
doping	1955_1959	ontslagrecht	Bram	-1	Jesper	0	-0.5000
doping	1955_1959	ontwapeningsprobleem	Bram	-1	Jesper	0	-0.5000
doping	1955_1959	ontwapeningsvraagstuk	Bram	-1	Jesper	0	-0.5000
doping	1955_1959	oorlogsmisdaden	Bram	-1	Jesper	0	-0.5000
doping	1955_1959	oorlogsrecht	Bram	-1	Jesper	0	-0.5000
doping	1955_1959	oorlogsvraagstuk	Bram	-1	Jesper	0	-0.5000
doping	1955_1959	opiaten	Bram	2	Jesper	1	1.5000
doping	1955_1959	oplichterij	Bram	-1	Jesper	0	-0.5000
doping	1955_1959	oplichting	Bram	-1	Jesper	0	-0.5000
doping	1955_1959	opruiing	Bram	-1	Jesper	0	-0.5000
doping	1955_1959	opschepperij	Bram	-1	Jesper	0	-0.5000
doping	1955_1959	opzettelijke	Bram	-1	Jesper	0	-0.5000
doping	1955_1959	ordeverstoring	Bram	-1	Jesper	0	-0.5000
doping	1955_1959	overdrachtelijk	Bram	-1	Jesper	0	-0.5000
doping	1955_1959	overgevoeligheid	Bram	-1	Jesper	0	-0.5000
doping	1955_1959	overkreditering	Bram	-1	Jesper	0	-0.5000
doping	1955_1959	overtreding	Bram	-1	Jesper	0	-0.5000
doping	1955_1959	oxaalzuur	Bram	-1	Jesper	0	-0.5000
doping	1955_1959	partijwezen	Bram	-1	Jesper	0	-0.5000
doping	1955_1959	penicilline	Bram	-1	Jesper	2	0.5000
doping	1955_1959	pervitine	Bram	-1	Jesper	0	-0.5000
doping	1955_1959	poedervormige	Bram	-1	Jesper	0	-0.5000
doping	1955_1959	politievraagstuk	Bram	-1	Jesper	0	-0.5000
doping	1955_1959	polygamie	Bram	-1	Jesper	0	-0.5000
doping	1955_1959	pornografie	Bram	-1	Jesper	0	-0.5000
doping	1955_1959	preludin	Bram	-1	Jesper	0	-0.5000
doping	1955_1959	preparaat	Bram	-1	Jesper	2	0.5000
doping	1955_1959	preparaten	Bram	-1	Jesper	0	-0.5000
doping	1955_1959	pressiegroep	Bram	-1	Jesper	0	-0.5000
doping	1955_1959	prestigeoverwegingen	Bram	-1	Jesper	0	-0.5000
doping	1955_1959	prijsopdrijvingen	Bram	-1	Jesper	0	-0.5000
doping	1955_1959	prijsstabilisatiebeleid	Bram	-1	Jesper	0	-0.5000
doping	1955_1959	proefdier	Bram	-1	Jesper	0	-0.5000
doping	1955_1959	propagandamiddel	Bram	-1	Jesper	0	-0.5000
doping	1955_1959	prostitutie	Bram	-1	Jesper	0	-0.5000
doping	1955_1959	reinigingsmiddelen	Bram	-1	Jesper	0	-0.5000
doping	1955_1959	reukstoffen	Bram	-1	Jesper	0	-0.5000
doping	1955_1959	rhesusfactor	Bram	-1	Jesper	0	-0.5000
doping	1955_1959	ronicol	Bram	-1	Jesper	0	-0.5000
doping	1955_1959	rookartikelen	Bram	-1	Jesper	0	-0.5000
doping	1955_1959	rookgordijnen	Bram	-1	Jesper	0	-0.5000
doping	1955_1959	rookwaren	Bram	-1	Jesper	0	-0.5000
doping	1955_1959	ruimtevrees	Bram	-1	Jesper	0	-0.5000
doping	1955_1959	saarprobleem	Bram	-1	Jesper	0	-0.5000
doping	1955_1959	saarvraagstuk	Bram	-1	Jesper	0	-0.5000
doping	1955_1959	salarisbeleid	Bram	-1	Jesper	0	-0.5000
doping	1955_1959	samenscholingsverbod	Bram	-1	Jesper	0	-0.5000
doping	1955_1959	schaking	Bram	-1	Jesper	0	-0.5000
doping	1955_1959	scheurbuik	Bram	-1	Jesper	0	-0.5000
doping	1955_1959	seradvies	Bram	-1	Jesper	0	-0.5000
doping	1955_1959	serum	Bram	-1	Jesper	0	-0.5000
doping	1955_1959	sigarettensmokkel	Bram	-1	Jesper	0	-0.5000
doping	1955_1959	slaapmiddelen	Bram	-1	Jesper	0	-0.5000
doping	1955_1959	smaad	Bram	-1	Jesper	0	-0.5000
doping	1955_1959	smaadschrift	Bram	-1	Jesper	0	-0.5000
doping	1955_1959	smokkel	Bram	-1	Jesper	0	-0.5000
doping	1955_1959	spiritualiën	Bram	-1	Jesper	0	-0.5000
doping	1955_1959	sportverdwazing	Bram	-1	Jesper	0	-0.5000
doping	1955_1959	spuitmiddel	Bram	-1	Jesper	0	-0.5000
doping	1955_1959	stimulantia	Bram	-1	Jesper	2	0.5000
doping	1955_1959	stoffen	Bram	-1	Jesper	0	-0.5000
doping	1955_1959	strafrechterlijke	Bram	-1	Jesper	0	-0.5000
doping	1955_1959	streptomycine	Bram	-1	Jesper	0	-0.5000
doping	1955_1959	strijdmethode	Bram	-1	Jesper	0	-0.5000
doping	1955_1959	strijdmiddel	Bram	-1	Jesper	0	-0.5000
doping	1955_1959	subsidiebeleid	Bram	-1	Jesper	0	-0.5000
doping	1955_1959	substanties	Bram	-1	Jesper	0	-0.5000
doping	1955_1959	suezgeschil	Bram	-1	Jesper	0	-0.5000
doping	1955_1959	suezprobleem	Bram	-1	Jesper	0	-0.5000
doping	1955_1959	suikerwerk	Bram	-1	Jesper	0	-0.5000
doping	1955_1959	sulfapreparaten	Bram	-1	Jesper	0	-0.5000
doping	1955_1959	sulfaverbindingen	Bram	-1	Jesper	0	-0.5000
doping	1955_1959	symphonicus	Bram	-1	Jesper	0	-0.5000
doping	1955_1959	syntetische	Bram	-1	Jesper	0	-0.5000
doping	1955_1959	tabaksartikelen	Bram	-1	Jesper	0	-0.5000
doping	1955_1959	tenlastegelegde	Bram	-1	Jesper	0	-0.5000
doping	1955_1959	terechtstonden	Bram	-1	Jesper	0	-0.5000
doping	1955_1959	textielgoederen	Bram	-1	Jesper	0	-0.5000
doping	1955_1959	tijdbesparing	Bram	-1	Jesper	0	-0.5000
doping	1955_1959	tijdoverschrijding	Bram	-1	Jesper	0	-0.5000
doping	1955_1959	totstandbrengen	Bram	-1	Jesper	0	-0.5000
doping	1955_1959	toxische	Bram	-1	Jesper	0	-0.5000
doping	1955_1959	tranquilizers	Bram	-1	Jesper	1	0.0000
doping	1955_1959	tranquillizers	Bram	-1	Jesper	1	0.0000
doping	1955_1959	uitputtend	Bram	-1	Jesper	0	-0.5000
doping	1955_1959	vaccin	Bram	-1	Jesper	0	-0.5000
doping	1955_1959	vaccins	Bram	-1	Jesper	0	-0.5000
doping	1955_1959	vaktaal	Bram	-1	Jesper	0	-0.5000
doping	1955_1959	vandalisme	Bram	-1	Jesper	0	-0.5000
doping	1955_1959	veevoeders	Bram	-1	Jesper	0	-0.5000
doping	1955_1959	veeziekten	Bram	-1	Jesper	0	-0.5000
doping	1955_1959	veiligheidsprobleem	Bram	-1	Jesper	0	-0.5000
doping	1955_1959	verdovende	Bram	-1	Jesper	0	-0.5000
doping	1955_1959	verfstoffen	Bram	-1	Jesper	0	-0.5000
doping	1955_1959	vergeetachtigheid	Bram	-1	Jesper	0	-0.5000
doping	1955_1959	vergelijkingsmateriaal	Bram	-1	Jesper	0	-0.5000
doping	1955_1959	vergiften	Bram	-1	Jesper	0	-0.5000
doping	1955_1959	verkeersregelen	Bram	-1	Jesper	0	-0.5000
doping	1955_1959	vermogensdelicten	Bram	-1	Jesper	0	-0.5000
doping	1955_1959	vernietigingswapen	Bram	-1	Jesper	0	-0.5000
doping	1955_1959	verpakkingsmateriaal	Bram	-1	Jesper	0	-0.5000
doping	1955_1959	verpakkingsmaterialen	Bram	-1	Jesper	0	-0.5000
doping	1955_1959	verslavende	Bram	-1	Jesper	0	-0.5000
doping	1955_1959	verslaving	Bram	-1	Jesper	0	-0.5000
doping	1955_1959	verspreiders	Bram	-1	Jesper	0	-0.5000
doping	1955_1959	vestigingsbeleid	Bram	-1	Jesper	0	-0.5000
doping	1955_1959	virulent	Bram	-1	Jesper	0	-0.5000
doping	1955_1959	vivisectie	Bram	-1	Jesper	0	-0.5000
doping	1955_1959	vleeswaren	Bram	-1	Jesper	0	-0.5000
doping	1955_1959	vloeistoffen	Bram	-1	Jesper	0	-0.5000
doping	1955_1959	vluchtelingenprobleem	Bram	-1	Jesper	0	-0.5000
doping	1955_1959	vluchtelingenvraagstuk	Bram	-1	Jesper	0	-0.5000
doping	1955_1959	voedermiddelen	Bram	-1	Jesper	0	-0.5000
doping	1955_1959	voedingsmiddelen	Bram	-1	Jesper	0	-0.5000
doping	1955_1959	voedingsstoffen	Bram	-1	Jesper	0	-0.5000
doping	1955_1959	voetbaltennis	Bram	-1	Jesper	0	-0.5000
doping	1955_1959	voorbehoedmiddel	Bram	-1	Jesper	0	-0.5000
doping	1955_1959	voorbehoedmiddelen	Bram	-1	Jesper	0	-0.5000
doping	1955_1959	voorbehoedsmiddel	Bram	-1	Jesper	0	-0.5000
doping	1955_1959	vrijheidsberoving	Bram	-1	Jesper	0	-0.5000
doping	1955_1959	vrouwenhandel	Bram	-1	Jesper	0	-0.5000
doping	1955_1959	waaghalzerij	Bram	-1	Jesper	0	-0.5000
doping	1955_1959	wagenziekte	Bram	-1	Jesper	0	-0.5000
doping	1955_1959	wederrechtelijke	Bram	-1	Jesper	0	-0.5000
doping	1955_1959	wekaminen	Bram	-1	Jesper	2	0.5000
doping	1955_1959	werkweigering	Bram	-1	Jesper	0	-0.5000
doping	1955_1959	woningbeleid	Bram	-1	Jesper	0	-0.5000
doping	1955_1959	woningvraagstuk	Bram	-1	Jesper	0	-0.5000
doping	1955_1959	woordspel	Bram	-1	Jesper	0	-0.5000
doping	1955_1959	zakkenrollerij	Bram	-1	Jesper	0	-0.5000
doping	1955_1959	ziekenfondswezen	Bram	-1	Jesper	0	-0.5000
doping	1955_1959	zoetmiddel	Bram	-1	Jesper	0	-0.5000
doping	1960_1964	aanbestedingswezen	Bram	-1	Jesper	0	-0.5000
doping	1960_1964	abortus	Bram	-1	Jesper	0	-0.5000
doping	1960_1964	afbetalingswezen	Bram	-1	Jesper	0	-0.5000
doping	1960_1964	afweermiddel	Bram	-1	Jesper	0	-0.5000
doping	1960_1964	alcohol	Bram	-1	Jesper	2	0.5000
doping	1960_1964	alcoholmisbruik	Bram	-1	Jesper	0	-0.5000
doping	1960_1964	allergische	Bram	-1	Jesper	0	-0.5000
doping	1960_1964	amfetamine	Bram	-1	Jesper	0	-0.5000
doping	1960_1964	amfetaminen	Bram	-1	Jesper	0	-0.5000
doping	1960_1964	amphetamine	Bram	-1	Jesper	0	-0.5000
doping	1960_1964	amphetaminen	Bram	-1	Jesper	0	-0.5000
doping	1960_1964	anabolica	Bram	-1	Jesper	0	-0.5000
doping	1960_1964	antibiotica	Bram	-1	Jesper	2	0.5000
doping	1960_1964	antibioticum	Bram	-1	Jesper	2	0.5000
doping	1960_1964	anticonceptionele	Bram	-1	Jesper	0	-0.5000
doping	1960_1964	antistollingsmiddelcn	Bram	-1	Jesper	0	-0.5000
doping	1960_1964	arbeidsprobleem	Bram	-1	Jesper	0	-0.5000
doping	1960_1964	atoomdeeltjes	Bram	-1	Jesper	0	-0.5000
doping	1960_1964	atoomkrachten	Bram	-1	Jesper	0	-0.5000
doping	1960_1964	autodiefstal	Bram	-1	Jesper	0	-0.5000
doping	1960_1964	bacteriedodende	Bram	-1	Jesper	0	-0.5000
doping	1960_1964	barbituraten	Bram	-1	Jesper	0	-0.5000
doping	1960_1964	bedrijfsbeleid	Bram	-1	Jesper	0	-0.5000
doping	1960_1964	beetse	Bram	-1	Jesper	0	-0.5000
doping	1960_1964	bejaardenprobleem	Bram	-1	Jesper	0	-0.5000
doping	1960_1964	belastingbeleid	Bram	-1	Jesper	0	-0.5000
doping	1960_1964	belediging	Bram	-1	Jesper	0	-0.5000
doping	1960_1964	bestralingen	Bram	-1	Jesper	0	-0.5000
doping	1960_1964	bestrijdingsmiddel	Bram	-1	Jesper	0	-0.5000
doping	1960_1964	bestrijdingsmiddelen	Bram	-1	Jesper	0	-0.5000
doping	1960_1964	bewijsmateriaal	Bram	-1	Jesper	0	-0.5000
doping	1960_1964	bewustzijnsverruimende	Bram	-1	Jesper	0	-0.5000
doping	1960_1964	bezitsvormingsbeleid	Bram	-1	Jesper	0	-0.5000
doping	1960_1964	bibliotheekwerk	Bram	-1	Jesper	0	-0.5000
doping	1960_1964	bigamie	Bram	-1	Jesper	0	-0.5000
doping	1960_1964	bijproducten	Bram	-1	Jesper	0	-0.5000
doping	1960_1964	bijprodukten	Bram	-1	Jesper	0	-0.5000
doping	1960_1964	bijwerkingen	Bram	-1	Jesper	0	-0.5000
doping	1960_1964	bloedwijn	Bram	-1	Jesper	0	-0.5000
doping	1960_1964	boorzuur	Bram	-1	Jesper	0	-0.5000
doping	1960_1964	bouwrijpmaken	Bram	-1	Jesper	0	-0.5000
doping	1960_1964	cabergkanaal	Bram	-1	Jesper	0	-0.5000
doping	1960_1964	carcinogene	Bram	-1	Jesper	0	-0.5000
doping	1960_1964	censuur	Bram	-1	Jesper	0	-0.5000
doping	1960_1964	clomipheen	Bram	-1	Jesper	0	-0.5000
doping	1960_1964	conjunctuurverloop	Bram	-1	Jesper	0	-0.5000
doping	1960_1964	contróle	Bram	-1	Jesper	0	-0.5000
doping	1960_1964	corruptie	Bram	-1	Jesper	0	-0.5000
doping	1960_1964	darmaandoeningen	Bram	-1	Jesper	0	-0.5000
doping	1960_1964	diepvriesprodukten	Bram	-1	Jesper	0	-0.5000
doping	1960_1964	dierenmishandeling	Bram	-1	Jesper	0	-0.5000
doping	1960_1964	discriminatie	Bram	-1	Jesper	0	-0.5000
doping	1960_1964	dlerentuindieren	Bram	-1	Jesper	0	-0.5000
doping	1960_1964	dope	Bram	-1	Jesper	1	0.0000
doping	1960_1964	doping	Bram	-1	Jesper	2	0.5000
doping	1960_1964	dopingcontrole	Bram	-1	Jesper	0	-0.5000
doping	1960_1964	dopinggebruik	Bram	-1	Jesper	0	-0.5000
doping	1960_1964	dopingonderzoek	Bram	-1	Jesper	0	-0.5000
doping	1960_1964	drankmisbruik	Bram	-1	Jesper	0	-0.5000
doping	1960_1964	drugs	Bram	-1	Jesper	2	0.5000
doping	1960_1964	echtscheidingsrecht	Bram	-1	Jesper	0	-0.5000
doping	1960_1964	echtscheidingsvraagstuk	Bram	-1	Jesper	0	-0.5000
doping	1960_1964	eemshavenproject	Bram	-1	Jesper	0	-0.5000
doping	1960_1964	eemshavenrapport	Bram	-1	Jesper	0	-0.5000
doping	1960_1964	eemsmondgebied	Bram	-1	Jesper	0	-0.5000
doping	1960_1964	eetwaren	Bram	-1	Jesper	0	-0.5000
doping	1960_1964	enzym	Bram	-1	Jesper	0	-0.5000
doping	1960_1964	ephedrine	Bram	-1	Jesper	1	0.0000
doping	1960_1964	excessen	Bram	-1	Jesper	0	-0.5000
doping	1960_1964	focale	Bram	-1	Jesper	0	-0.5000
doping	1960_1964	garagecomplex	Bram	-1	Jesper	0	-0.5000
doping	1960_1964	garantieprijsbeleid	Bram	-1	Jesper	0	-0.5000
doping	1960_1964	geboorteregeling	Bram	-1	Jesper	0	-0.5000
doping	1960_1964	geestverruimende	Bram	-1	Jesper	0	-0.5000
doping	1960_1964	geneesmiddel	Bram	-1	Jesper	2	0.5000
doping	1960_1964	geneesmiddelen	Bram	-1	Jesper	0	-0.5000
doping	1960_1964	geschiedenislesje	Bram	-1	Jesper	0	-0.5000
doping	1960_1964	gezinsbedrijf	Bram	-1	Jesper	0	-0.5000
doping	1960_1964	giftigheid	Bram	-1	Jesper	0	-0.5000
doping	1960_1964	gordelroos	Bram	-1	Jesper	0	-0.5000
doping	1960_1964	grondstoffen	Bram	-1	Jesper	0	-0.5000
doping	1960_1964	hallucinogene	Bram	-1	Jesper	0	-0.5000
doping	1960_1964	hallucinogenen	Bram	-1	Jesper	0	-0.5000
doping	1960_1964	homoseksualiteit	Bram	-1	Jesper	0	-0.5000
doping	1960_1964	hormonen	Bram	-1	Jesper	0	-0.5000
doping	1960_1964	hormoon	Bram	-1	Jesper	0	-0.5000
doping	1960_1964	hormoonpreparaten	Bram	-1	Jesper	2	0.5000
doping	1960_1964	hoteldiefstallen	Bram	-1	Jesper	0	-0.5000
doping	1960_1964	huidziekte	Bram	-1	Jesper	0	-0.5000
doping	1960_1964	huisvredebreuk	Bram	-1	Jesper	0	-0.5000
doping	1960_1964	huurbeleid	Bram	-1	Jesper	0	-0.5000
doping	1960_1964	huurvraagstuk	Bram	-1	Jesper	0	-0.5000
doping	1960_1964	indiscretie	Bram	-1	Jesper	0	-0.5000
doping	1960_1964	insecticiden	Bram	-1	Jesper	0	-0.5000
doping	1960_1964	insekticiden	Bram	-1	Jesper	0	-0.5000
doping	1960_1964	interferon	Bram	-1	Jesper	0	-0.5000
doping	1960_1964	intrinsiek	Bram	-1	Jesper	0	-0.5000
doping	1960_1964	inwerkingtreden	Bram	-1	Jesper	0	-0.5000
doping	1960_1964	jaarbeursbestuur	Bram	-1	Jesper	0	-0.5000
doping	1960_1964	kaaswei	Bram	-1	Jesper	0	-0.5000
doping	1960_1964	kabinetsstandpunt	Bram	-1	Jesper	0	-0.5000
doping	1960_1964	kalknagels	Bram	-1	Jesper	0	-0.5000
doping	1960_1964	kalmeringsmiddelen	Bram	-1	Jesper	0	-0.5000
doping	1960_1964	kanker	Bram	-1	Jesper	0	-0.5000
doping	1960_1964	kankerverwekkende	Bram	-1	Jesper	0	-0.5000
doping	1960_1964	kasjroeth	Bram	-1	Jesper	0	-0.5000
doping	1960_1964	kernbeleid	Bram	-1	Jesper	0	-0.5000
doping	1960_1964	kernenbeleid	Bram	-1	Jesper	0	-0.5000
doping	1960_1964	kernversmelting	Bram	-1	Jesper	0	-0.5000
doping	1960_1964	kernwapenen	Bram	-1	Jesper	0	-0.5000
doping	1960_1964	kleurstoffen	Bram	-1	Jesper	0	-0.5000
doping	1960_1964	koelwatercircuit	Bram	-1	Jesper	0	-0.5000
doping	1960_1964	koninkrijksstatuut	Bram	-1	Jesper	0	-0.5000
doping	1960_1964	kruideniersmentaliteit	Bram	-1	Jesper	0	-0.5000
doping	1960_1964	kruidenierswaren	Bram	-1	Jesper	0	-0.5000
doping	1960_1964	kunstharsen	Bram	-1	Jesper	0	-0.5000
doping	1960_1964	kwakzalverij	Bram	-1	Jesper	0	-0.5000
doping	1960_1964	laakbare	Bram	-1	Jesper	0	-0.5000
doping	1960_1964	landloperü	Bram	-1	Jesper	0	-0.5000
doping	1960_1964	landverraad	Bram	-1	Jesper	0	-0.5000
doping	1960_1964	lauwerszeegebied	Bram	-1	Jesper	0	-0.5000
doping	1960_1964	lauwerszeeproject	Bram	-1	Jesper	0	-0.5000
doping	1960_1964	levensmiddelen	Bram	-1	Jesper	0	-0.5000
doping	1960_1964	lichtgas	Bram	-1	Jesper	0	-0.5000
doping	1960_1964	limonades	Bram	-1	Jesper	0	-0.5000
doping	1960_1964	lokaalvredebreuk	Bram	-1	Jesper	0	-0.5000
doping	1960_1964	loodvergiftiging	Bram	-1	Jesper	0	-0.5000
doping	1960_1964	loonvraagstuk	Bram	-1	Jesper	0	-0.5000
doping	1960_1964	lsd	Bram	-1	Jesper	0	-0.5000
doping	1960_1964	luchtfotografie	Bram	-1	Jesper	0	-0.5000
doping	1960_1964	luminal	Bram	-1	Jesper	0	-0.5000
doping	1960_1964	maagzuur	Bram	-1	Jesper	0	-0.5000
doping	1960_1964	managerziekte	Bram	-1	Jesper	0	-0.5000
doping	1960_1964	margarinebesluit	Bram	-1	Jesper	0	-0.5000
doping	1960_1964	meclizine	Bram	-1	Jesper	0	-0.5000
doping	1960_1964	mededaderschap	Bram	-1	Jesper	0	-0.5000
doping	1960_1964	medicament	Bram	-1	Jesper	2	0.5000
doping	1960_1964	medicamenten	Bram	-1	Jesper	2	0.5000
doping	1960_1964	meineed	Bram	-1	Jesper	0	-0.5000
doping	1960_1964	melkprijsbeleid	Bram	-1	Jesper	0	-0.5000
doping	1960_1964	mescaline	Bram	-1	Jesper	0	-0.5000
doping	1960_1964	meststoffen	Bram	-1	Jesper	0	-0.5000
doping	1960_1964	misdragingen	Bram	-1	Jesper	0	-0.5000
doping	1960_1964	misleiding	Bram	-1	Jesper	0	-0.5000
doping	1960_1964	narcotica	Bram	-1	Jesper	2	0.5000
doping	1960_1964	narcotische	Bram	-1	Jesper	2	0.5000
doping	1960_1964	natrappen	Bram	-1	Jesper	0	-0.5000
doping	1960_1964	neusdruppels	Bram	-1	Jesper	0	-0.5000
doping	1960_1964	nieuwsbladgebouw	Bram	-1	Jesper	0	-0.5000
doping	1960_1964	oestrogeen	Bram	-1	Jesper	0	-0.5000
doping	1960_1964	ondeugdeiyk	Bram	-1	Jesper	0	-0.5000
doping	1960_1964	onregelmatigheden	Bram	-1	Jesper	0	-0.5000
doping	1960_1964	onsportiviteit	Bram	-1	Jesper	0	-0.5000
doping	1960_1964	ontoelaatbare	Bram	-1	Jesper	0	-0.5000
doping	1960_1964	ontwapeningsprobleem	Bram	-1	Jesper	0	-0.5000
doping	1960_1964	oorlogsrecht	Bram	-1	Jesper	0	-0.5000
doping	1960_1964	oorlogsvraagstuk	Bram	-1	Jesper	0	-0.5000
doping	1960_1964	openiyke	Bram	-1	Jesper	0	-0.5000
doping	1960_1964	opiaten	Bram	2	Jesper	1	1.5000
doping	1960_1964	opruiing	Bram	-1	Jesper	0	-0.5000
doping	1960_1964	opschepperij	Bram	-1	Jesper	0	-0.5000
doping	1960_1964	opzettelijke	Bram	-1	Jesper	0	-0.5000
doping	1960_1964	ordeverstoring	Bram	-1	Jesper	0	-0.5000
doping	1960_1964	overgevoeligheid	Bram	-1	Jesper	0	-0.5000
doping	1960_1964	overheidsbudget	Bram	-1	Jesper	0	-0.5000
doping	1960_1964	overkreditering	Bram	-1	Jesper	0	-0.5000
doping	1960_1964	overtreding	Bram	-1	Jesper	0	-0.5000
doping	1960_1964	oxaalzuur	Bram	-1	Jesper	0	-0.5000
doping	1960_1964	partijwezen	Bram	-1	Jesper	0	-0.5000
doping	1960_1964	penicilline	Bram	-1	Jesper	1	0.0000
doping	1960_1964	pepmiddelen	Bram	-1	Jesper	2	0.5000
doping	1960_1964	peppillen	Bram	-1	Jesper	2	0.5000
doping	1960_1964	pervetine	Bram	-1	Jesper	0	-0.5000
doping	1960_1964	pervitine	Bram	-1	Jesper	0	-0.5000
doping	1960_1964	poedervormige	Bram	-1	Jesper	0	-0.5000
doping	1960_1964	pornografie	Bram	-1	Jesper	0	-0.5000
doping	1960_1964	preludin	Bram	-1	Jesper	0	-0.5000
doping	1960_1964	preparaat	Bram	-1	Jesper	2	0.5000
doping	1960_1964	preparaten	Bram	-1	Jesper	2	0.5000
doping	1960_1964	pressiegroep	Bram	-1	Jesper	0	-0.5000
doping	1960_1964	prijsstabilisatiebeleid	Bram	-1	Jesper	0	-0.5000
doping	1960_1964	produktschapsbestuur	Bram	-1	Jesper	0	-0.5000
doping	1960_1964	proefdier	Bram	-1	Jesper	0	-0.5000
doping	1960_1964	progesteron	Bram	-1	Jesper	0	-0.5000
doping	1960_1964	propagandamiddel	Bram	-1	Jesper	0	-0.5000
doping	1960_1964	prostaglandine	Bram	-1	Jesper	0	-0.5000
doping	1960_1964	prostitutie	Bram	-1	Jesper	0	-0.5000
doping	1960_1964	recreatieprobleem	Bram	-1	Jesper	0	-0.5000
doping	1960_1964	reformjodendom	Bram	-1	Jesper	0	-0.5000
doping	1960_1964	reinigingsmiddelen	Bram	-1	Jesper	0	-0.5000
doping	1960_1964	reukstoffen	Bram	-1	Jesper	0	-0.5000
doping	1960_1964	rijksbeleid	Bram	-1	Jesper	0	-0.5000
doping	1960_1964	rijksgoedkeuringsbeleid	Bram	-1	Jesper	0	-0.5000
doping	1960_1964	ronicol	Bram	-1	Jesper	0	-0.5000
doping	1960_1964	rookartikelen	Bram	-1	Jesper	0	-0.5000
doping	1960_1964	salarisbeleid	Bram	-1	Jesper	0	-0.5000
doping	1960_1964	samenscholingsverbod	Bram	-1	Jesper	0	-0.5000
doping	1960_1964	scheldebekken	Bram	-1	Jesper	0	-0.5000
doping	1960_1964	scheurbuik	Bram	-1	Jesper	0	-0.5000
doping	1960_1964	seradvies	Bram	-1	Jesper	0	-0.5000
doping	1960_1964	serum	Bram	-1	Jesper	0	-0.5000
doping	1960_1964	slaapmiddelen	Bram	-1	Jesper	0	-0.5000
doping	1960_1964	smaad	Bram	-1	Jesper	0	-0.5000
doping	1960_1964	smaadschrift	Bram	-1	Jesper	0	-0.5000
doping	1960_1964	smokkel	Bram	-1	Jesper	0	-0.5000
doping	1960_1964	smokkelarij	Bram	-1	Jesper	0	-0.5000
doping	1960_1964	spiritualiën	Bram	-1	Jesper	0	-0.5000
doping	1960_1964	spuitmiddel	Bram	-1	Jesper	0	-0.5000
doping	1960_1964	staatsmijnbedrijf	Bram	-1	Jesper	0	-0.5000
doping	1960_1964	stimulantia	Bram	-1	Jesper	2	0.5000
doping	1960_1964	stimulerende	Bram	-1	Jesper	0	-0.5000
doping	1960_1964	stoffen	Bram	-1	Jesper	0	-0.5000
doping	1960_1964	strafrechterlijke	Bram	-1	Jesper	0	-0.5000
doping	1960_1964	streptomycine	Bram	-1	Jesper	0	-0.5000
doping	1960_1964	strijdmiddel	Bram	-1	Jesper	0	-0.5000
doping	1960_1964	subsidiestelsel	Bram	-1	Jesper	0	-0.5000
doping	1960_1964	substanties	Bram	-1	Jesper	0	-0.5000
doping	1960_1964	suikerwerk	Bram	-1	Jesper	0	-0.5000
doping	1960_1964	sulfapreparaten	Bram	-1	Jesper	0	-0.5000
doping	1960_1964	syntetische	Bram	-1	Jesper	0	-0.5000
doping	1960_1964	tabaksartikelen	Bram	-1	Jesper	0	-0.5000
doping	1960_1964	tenlastegelegde	Bram	-1	Jesper	0	-0.5000
doping	1960_1964	terechtstonden	Bram	-1	Jesper	0	-0.5000
doping	1960_1964	textielgoederen	Bram	-1	Jesper	0	-0.5000
doping	1960_1964	thalidomide	Bram	-1	Jesper	0	-0.5000
doping	1960_1964	tijdoverschrijding	Bram	-1	Jesper	0	-0.5000
doping	1960_1964	totstandbrengen	Bram	-1	Jesper	0	-0.5000
doping	1960_1964	toxische	Bram	-1	Jesper	0	-0.5000
doping	1960_1964	tranquilizers	Bram	-1	Jesper	1	0.0000
doping	1960_1964	tranquillizers	Bram	-1	Jesper	1	0.0000
doping	1960_1964	unileverconcern	Bram	-1	Jesper	0	-0.5000
doping	1960_1964	vaccin	Bram	-1	Jesper	0	-0.5000
doping	1960_1964	vaccins	Bram	-1	Jesper	0	-0.5000
doping	1960_1964	vandalisme	Bram	-1	Jesper	0	-0.5000
doping	1960_1964	veengebied	Bram	-1	Jesper	0	-0.5000
doping	1960_1964	veevoeders	Bram	-1	Jesper	0	-0.5000
doping	1960_1964	veeziekten	Bram	-1	Jesper	0	-0.5000
doping	1960_1964	verdovende	Bram	-1	Jesper	0	-0.5000
doping	1960_1964	vergiften	Bram	-1	Jesper	0	-0.5000
doping	1960_1964	vermogensdelicten	Bram	-1	Jesper	0	-0.5000
doping	1960_1964	vernietigingswapen	Bram	-1	Jesper	0	-0.5000
doping	1960_1964	verpakkingsmateriaal	Bram	-1	Jesper	0	-0.5000
doping	1960_1964	verpakkingsmaterialen	Bram	-1	Jesper	0	-0.5000
doping	1960_1964	verslavende	Bram	-1	Jesper	0	-0.5000
doping	1960_1964	verslaving	Bram	-1	Jesper	0	-0.5000
doping	1960_1964	vestigingsbeleid	Bram	-1	Jesper	0	-0.5000
doping	1960_1964	vivisectie	Bram	-1	Jesper	0	-0.5000
doping	1960_1964	vleeswaren	Bram	-1	Jesper	0	-0.5000
doping	1960_1964	vloeistoffen	Bram	-1	Jesper	0	-0.5000
doping	1960_1964	voedermiddelen	Bram	-1	Jesper	0	-0.5000
doping	1960_1964	voedingsmiddelen	Bram	-1	Jesper	0	-0.5000
doping	1960_1964	voedingsstoffen	Bram	-1	Jesper	0	-0.5000
doping	1960_1964	volksgezondheidsbeleid	Bram	-1	Jesper	0	-0.5000
doping	1960_1964	voorbehoedmiddel	Bram	-1	Jesper	0	-0.5000
doping	1960_1964	voorbehoedmiddelen	Bram	-1	Jesper	0	-0.5000
doping	1960_1964	voorbehoedsmiddel	Bram	-1	Jesper	0	-0.5000
doping	1960_1964	vrijheidsberoving	Bram	-1	Jesper	0	-0.5000
doping	1960_1964	vrouwenhandel	Bram	-1	Jesper	0	-0.5000
doping	1960_1964	waaghalzerij	Bram	-1	Jesper	0	-0.5000
doping	1960_1964	wagenziekte	Bram	-1	Jesper	0	-0.5000
doping	1960_1964	watergebied	Bram	-1	Jesper	0	-0.5000
doping	1960_1964	wederrechtelijke	Bram	-1	Jesper	0	-0.5000
doping	1960_1964	wegenbouwprogramma	Bram	-1	Jesper	0	-0.5000
doping	1960_1964	wekaminen	Bram	-1	Jesper	0	-0.5000
doping	1960_1964	werkgelegenheidsprobleem	Bram	-1	Jesper	0	-0.5000
doping	1960_1964	werkloosheidsprobleem	Bram	-1	Jesper	0	-0.5000
doping	1960_1964	werkweigering	Bram	-1	Jesper	0	-0.5000
doping	1960_1964	woningbeleid	Bram	-1	Jesper	0	-0.5000
doping	1960_1964	woningvraagstuk	Bram	-1	Jesper	0	-0.5000
doping	1960_1964	zakkenrollerij	Bram	-1	Jesper	0	-0.5000
doping	1960_1964	ziekenfondswezen	Bram	-1	Jesper	0	-0.5000
doping	1960_1964	zoetmiddel	Bram	-1	Jesper	0	-0.5000
doping	1965_1969	aanbestedingswezen	Bram	-1	Jesper	0	-0.5000
doping	1965_1969	abortus	Bram	-1	Jesper	0	-0.5000
doping	1965_1969	afweermiddel	Bram	-1	Jesper	0	-0.5000
doping	1965_1969	amfetamine	Bram	-1	Jesper	2	0.5000
doping	1965_1969	amfetaminen	Bram	-1	Jesper	2	0.5000
doping	1965_1969	amphetamine	Bram	-1	Jesper	2	0.5000
doping	1965_1969	amphetaminen	Bram	-1	Jesper	2	0.5000
doping	1965_1969	anabole	Bram	-1	Jesper	0	-0.5000
doping	1965_1969	anabolica	Bram	-1	Jesper	0	-0.5000
doping	1965_1969	antibiotica	Bram	-1	Jesper	2	0.5000
doping	1965_1969	antibioticum	Bram	-1	Jesper	2	0.5000
doping	1965_1969	anticonceptionele	Bram	-1	Jesper	0	-0.5000
doping	1965_1969	antistollingsmiddelcn	Bram	-1	Jesper	0	-0.5000
doping	1965_1969	armoedevraagstuk	Bram	-1	Jesper	0	-0.5000
doping	1965_1969	atheisme	Bram	-1	Jesper	0	-0.5000
doping	1965_1969	atlasgebergte	Bram	-1	Jesper	0	-0.5000
doping	1965_1969	atoomdeeltjes	Bram	-1	Jesper	0	-0.5000
doping	1965_1969	bacteriedodende	Bram	-1	Jesper	0	-0.5000
doping	1965_1969	bandbreuk	Bram	-1	Jesper	0	-0.5000
doping	1965_1969	barbituraten	Bram	-1	Jesper	0	-0.5000
doping	1965_1969	beetse	Bram	-1	Jesper	0	-0.5000
doping	1965_1969	bejaardenprobleem	Bram	-1	Jesper	0	-0.5000
doping	1965_1969	belastingbeleid	Bram	-1	Jesper	0	-0.5000
doping	1965_1969	belediging	Bram	-1	Jesper	0	-0.5000
doping	1965_1969	benzinegebrek	Bram	-1	Jesper	0	-0.5000
doping	1965_1969	bestralingen	Bram	-1	Jesper	0	-0.5000
doping	1965_1969	bestrijdingsmiddel	Bram	-1	Jesper	0	-0.5000
doping	1965_1969	bestrijdingsmiddelen	Bram	-1	Jesper	0	-0.5000
doping	1965_1969	bewustzijnsverruimende	Bram	-1	Jesper	0	-0.5000
doping	1965_1969	bibliotheekwerk	Bram	-1	Jesper	0	-0.5000
doping	1965_1969	bigamie	Bram	-1	Jesper	0	-0.5000
doping	1965_1969	bijwerkingen	Bram	-1	Jesper	0	-0.5000
doping	1965_1969	boeking	Bram	-1	Jesper	0	-0.5000
doping	1965_1969	bouwrijpmaken	Bram	-1	Jesper	0	-0.5000
doping	1965_1969	cabergkanaal	Bram	-1	Jesper	0	-0.5000
doping	1965_1969	carcinogene	Bram	-1	Jesper	0	-0.5000
doping	1965_1969	clomipheen	Bram	-1	Jesper	0	-0.5000
doping	1965_1969	contractbreuk	Bram	-1	Jesper	0	-0.5000
doping	1965_1969	contróle	Bram	-1	Jesper	0	-0.5000
doping	1965_1969	coramine	Bram	-1	Jesper	0	-0.5000
doping	1965_1969	dagtoerisme	Bram	-1	Jesper	0	-0.5000
doping	1965_1969	dienstverzuim	Bram	-1	Jesper	0	-0.5000
doping	1965_1969	dierenmishandeling	Bram	-1	Jesper	0	-0.5000
doping	1965_1969	dope	Bram	2	Jesper	1	1.5000
doping	1965_1969	doping	Bram	2	Jesper	2	2.0000
doping	1965_1969	dopingcontrole	Bram	2	Jesper	0	1.0000
doping	1965_1969	dopinggebruik	Bram	2	Jesper	0	1.0000
doping	1965_1969	dopingonderzoek	Bram	2	Jesper	0	1.0000
doping	1965_1969	dopingreglementen	Bram	2	Jesper	0	1.0000
doping	1965_1969	druggebruik	Bram	2	Jesper	0	1.0000
doping	1965_1969	drugs	Bram	2	Jesper	2	2.0000
doping	1965_1969	duraboline	Bram	-1	Jesper	0	-0.5000
doping	1965_1969	echtscheidingsrecht	Bram	-1	Jesper	0	-0.5000
doping	1965_1969	eemshavenproject	Bram	-1	Jesper	0	-0.5000
doping	1965_1969	eemshavenrapport	Bram	-1	Jesper	0	-0.5000
doping	1965_1969	eemsmondgebied	Bram	-1	Jesper	0	-0.5000
doping	1965_1969	efedrine	Bram	-1	Jesper	2	0.5000
doping	1965_1969	enzym	Bram	-1	Jesper	0	-0.5000
doping	1965_1969	ephedrine	Bram	-1	Jesper	2	0.5000
doping	1965_1969	etherpiraterij	Bram	-1	Jesper	0	-0.5000
doping	1965_1969	evolutionisme	Bram	-1	Jesper	0	-0.5000
doping	1965_1969	excessen	Bram	-1	Jesper	0	-0.5000
doping	1965_1969	francobewind	Bram	-1	Jesper	0	-0.5000
doping	1965_1969	francoregiem	Bram	-1	Jesper	0	-0.5000
doping	1965_1969	garagecomplex	Bram	-1	Jesper	0	-0.5000
doping	1965_1969	geboorteregeling	Bram	-1	Jesper	0	-0.5000
doping	1965_1969	geestverruimende	Bram	-1	Jesper	0	-0.5000
doping	1965_1969	geneesmiddel	Bram	-1	Jesper	0	-0.5000
doping	1965_1969	geneesmiddelen	Bram	-1	Jesper	0	-0.5000
doping	1965_1969	giftigheid	Bram	-1	Jesper	0	-0.5000
doping	1965_1969	hallucinogene	Bram	-1	Jesper	0	-0.5000
doping	1965_1969	hallucinogenen	Bram	-1	Jesper	0	-0.5000
doping	1965_1969	handelsapparaat	Bram	-1	Jesper	0	-0.5000
doping	1965_1969	hiernumaals	Bram	-1	Jesper	0	-0.5000
doping	1965_1969	homoseksualiteit	Bram	-1	Jesper	0	-0.5000
doping	1965_1969	hormonen	Bram	-1	Jesper	0	-0.5000
doping	1965_1969	hormonoïden	Bram	-1	Jesper	2	0.5000
doping	1965_1969	hormoon	Bram	-1	Jesper	0	-0.5000
doping	1965_1969	hormoonpreparaten	Bram	-1	Jesper	2	0.5000
doping	1965_1969	huisvredebreuk	Bram	-1	Jesper	0	-0.5000
doping	1965_1969	imipramine	Bram	-1	Jesper	2	0.5000
doping	1965_1969	insecticiden	Bram	-1	Jesper	0	-0.5000
doping	1965_1969	insekticiden	Bram	-1	Jesper	0	-0.5000
doping	1965_1969	insuline	Bram	-1	Jesper	0	-0.5000
doping	1965_1969	interferon	Bram	-1	Jesper	0	-0.5000
doping	1965_1969	juveniel	Bram	-1	Jesper	0	-0.5000
doping	1965_1969	kalmeringsmiddelen	Bram	-1	Jesper	0	-0.5000
doping	1965_1969	kankerverwekkende	Bram	-1	Jesper	0	-0.5000
doping	1965_1969	kernwapenen	Bram	-1	Jesper	0	-0.5000
doping	1965_1969	kinderbeschermingswerk	Bram	-1	Jesper	0	-0.5000
doping	1965_1969	kleurstoffen	Bram	-1	Jesper	0	-0.5000
doping	1965_1969	koelwatercircuit	Bram	-1	Jesper	0	-0.5000
doping	1965_1969	landverraad	Bram	-1	Jesper	0	-0.5000
doping	1965_1969	lauwerszeegebied	Bram	-1	Jesper	0	-0.5000
doping	1965_1969	leerlingenwezen	Bram	-1	Jesper	1	0.0000
doping	1965_1969	levensmiddelen	Bram	-1	Jesper	0	-0.5000
doping	1965_1969	liefdegebod	Bram	-1	Jesper	0	-0.5000
doping	1965_1969	lokaalvredebreuk	Bram	-1	Jesper	0	-0.5000
doping	1965_1969	lsd	Bram	-1	Jesper	1	0.0000
doping	1965_1969	luminal	Bram	-1	Jesper	0	-0.5000
doping	1965_1969	machinepech	Bram	-1	Jesper	0	-0.5000
doping	1965_1969	mastbreuk	Bram	-1	Jesper	0	-0.5000
doping	1965_1969	materiaalpech	Bram	-1	Jesper	0	-0.5000
doping	1965_1969	meclizine	Bram	-1	Jesper	2	0.5000
doping	1965_1969	mededaderschap	Bram	-1	Jesper	0	-0.5000
doping	1965_1969	medicament	Bram	1	Jesper	2	1.5000
doping	1965_1969	meineed	Bram	-1	Jesper	0	-0.5000
doping	1965_1969	mescaline	Bram	-1	Jesper	0	-0.5000
doping	1965_1969	misdragingen	Bram	-1	Jesper	0	-0.5000
doping	1965_1969	misleiding	Bram	-1	Jesper	0	-0.5000
doping	1965_1969	narcotica	Bram	-1	Jesper	2	0.5000
doping	1965_1969	narcotische	Bram	-1	Jesper	2	0.5000
doping	1965_1969	natrappen	Bram	-1	Jesper	0	-0.5000
doping	1965_1969	natriumfluoride	Bram	-1	Jesper	0	-0.5000
doping	1965_1969	neusdruppels	Bram	-1	Jesper	0	-0.5000
doping	1965_1969	nieuwsbladgebouw	Bram	-1	Jesper	0	-0.5000
doping	1965_1969	oestrogeen	Bram	-1	Jesper	0	-0.5000
doping	1965_1969	officierencorps	Bram	-1	Jesper	0	-0.5000
doping	1965_1969	onderuithalen	Bram	-1	Jesper	0	-0.5000
doping	1965_1969	ongeoorloofde	Bram	-1	Jesper	0	-0.5000
doping	1965_1969	onkruidbestrijdingsmiddel	Bram	-1	Jesper	0	-0.5000
doping	1965_1969	onregelmatigheden	Bram	-1	Jesper	0	-0.5000
doping	1965_1969	ontoelaatbare	Bram	-1	Jesper	0	-0.5000
doping	1965_1969	oorlogsrecht	Bram	-1	Jesper	0	-0.5000
doping	1965_1969	oorlogsvraagstuk	Bram	-1	Jesper	0	-0.5000
doping	1965_1969	openiyke	Bram	-1	Jesper	0	-0.5000
doping	1965_1969	opiaten	Bram	-1	Jesper	1	0.0000
doping	1965_1969	opiumwet	Bram	-1	Jesper	0	-0.5000
doping	1965_1969	opruiing	Bram	-1	Jesper	0	-0.5000
doping	1965_1969	opzettelijke	Bram	-1	Jesper	0	-0.5000
doping	1965_1969	ordeverstoring	Bram	-1	Jesper	0	-0.5000
doping	1965_1969	overheidsbudget	Bram	-1	Jesper	0	-0.5000
doping	1965_1969	overtreding	Bram	-1	Jesper	0	-0.5000
doping	1965_1969	partijspel	Bram	-1	Jesper	0	-0.5000
doping	1965_1969	pendrey	Bram	-1	Jesper	0	-0.5000
doping	1965_1969	penicilline	Bram	-1	Jesper	1	0.0000
doping	1965_1969	pepmiddelen	Bram	-1	Jesper	2	0.5000
doping	1965_1969	peppillen	Bram	-1	Jesper	2	0.5000
doping	1965_1969	pervetine	Bram	-1	Jesper	2	0.5000
doping	1965_1969	pijnstillers	Bram	-1	Jesper	1	0.0000
doping	1965_1969	pornografie	Bram	-1	Jesper	0	-0.5000
doping	1965_1969	preludin	Bram	-1	Jesper	0	-0.5000
doping	1965_1969	preparaat	Bram	-1	Jesper	2	0.5000
doping	1965_1969	preparaten	Bram	-1	Jesper	0	-0.5000
doping	1965_1969	productieapparaat	Bram	-1	Jesper	0	-0.5000
doping	1965_1969	proefdier	Bram	-1	Jesper	0	-0.5000
doping	1965_1969	progesteron	Bram	-1	Jesper	0	-0.5000
doping	1965_1969	prostaglandine	Bram	-1	Jesper	0	-0.5000
doping	1965_1969	psychofarmaca	Bram	-1	Jesper	0	-0.5000
doping	1965_1969	recreatieprobleem	Bram	-1	Jesper	0	-0.5000
doping	1965_1969	rijksbeleid	Bram	-1	Jesper	0	-0.5000
doping	1965_1969	rijksgoedkeuringsbeleid	Bram	-1	Jesper	0	-0.5000
doping	1965_1969	ronicol	Bram	-1	Jesper	0	-0.5000
doping	1965_1969	samenscholingsverbod	Bram	-1	Jesper	0	-0.5000
doping	1965_1969	scheldebekken	Bram	-1	Jesper	0	-0.5000
doping	1965_1969	serum	Bram	-1	Jesper	0	-0.5000
doping	1965_1969	slaapmiddelen	Bram	-1	Jesper	0	-0.5000
doping	1965_1969	smaad	Bram	-1	Jesper	0	-0.5000
doping	1965_1969	smaadschrift	Bram	-1	Jesper	0	-0.5000
doping	1965_1969	smokkel	Bram	-1	Jesper	0	-0.5000
doping	1965_1969	smokkelarij	Bram	-1	Jesper	0	-0.5000
doping	1965_1969	softdrugs	Bram	-1	Jesper	0	-0.5000
doping	1965_1969	spelbederf	Bram	-1	Jesper	0	-0.5000
doping	1965_1969	staatsgezag	Bram	-1	Jesper	0	-0.5000
doping	1965_1969	staatsmijnbedrijf	Bram	-1	Jesper	0	-0.5000
doping	1965_1969	stimul	Bram	-1	Jesper	0	-0.5000
doping	1965_1969	stimulantia	Bram	-1	Jesper	2	0.5000
doping	1965_1969	stimulerende	Bram	-1	Jesper	0	-0.5000
doping	1965_1969	stoffen	Bram	-1	Jesper	0	-0.5000
doping	1965_1969	streekeigene	Bram	-1	Jesper	0	-0.5000
doping	1965_1969	strijdmiddel	Bram	-1	Jesper	0	-0.5000
doping	1965_1969	substanties	Bram	-1	Jesper	0	-0.5000
doping	1965_1969	sulfapreparaten	Bram	-1	Jesper	0	-0.5000
doping	1965_1969	tenlastegelegde	Bram	-1	Jesper	0	-0.5000
doping	1965_1969	terechtstonden	Bram	-1	Jesper	0	-0.5000
doping	1965_1969	thalidomide	Bram	-1	Jesper	0	-0.5000
doping	1965_1969	tienstammenrijk	Bram	-1	Jesper	0	-0.5000
doping	1965_1969	tijdoverschrijding	Bram	-1	Jesper	0	-0.5000
doping	1965_1969	tijdsoverschrijding	Bram	-1	Jesper	0	-0.5000
doping	1965_1969	toxische	Bram	-1	Jesper	0	-0.5000
doping	1965_1969	tranquilizers	Bram	-1	Jesper	1	0.0000
doping	1965_1969	tranquillizers	Bram	-1	Jesper	1	0.0000
doping	1965_1969	uitwisbare	Bram	-1	Jesper	0	-0.5000
doping	1965_1969	unileverconcern	Bram	-1	Jesper	0	-0.5000
doping	1965_1969	vaccin	Bram	-1	Jesper	0	-0.5000
doping	1965_1969	vaccins	Bram	-1	Jesper	0	-0.5000
doping	1965_1969	vandalisme	Bram	-1	Jesper	0	-0.5000
doping	1965_1969	veelvuldigst	Bram	-1	Jesper	0	-0.5000
doping	1965_1969	veengebied	Bram	-1	Jesper	0	-0.5000
doping	1965_1969	verdovende	Bram	-1	Jesper	0	-0.5000
doping	1965_1969	vergiften	Bram	-1	Jesper	0	-0.5000
doping	1965_1969	vergunningenbeleid	Bram	-1	Jesper	0	-0.5000
doping	1965_1969	verslavende	Bram	-1	Jesper	0	-0.5000
doping	1965_1969	verslaving	Bram	-1	Jesper	0	-0.5000
doping	1965_1969	verworvene	Bram	-1	Jesper	0	-0.5000
doping	1965_1969	verzekeringspakket	Bram	-1	Jesper	0	-0.5000
doping	1965_1969	volksgezondheidsbeleid	Bram	-1	Jesper	0	-0.5000
doping	1965_1969	voorbehoedmiddel	Bram	-1	Jesper	0	-0.5000
doping	1965_1969	voorbehoedmiddelen	Bram	-1	Jesper	0	-0.5000
doping	1965_1969	vrijheidsberoving	Bram	-1	Jesper	0	-0.5000
doping	1965_1969	vrouwenhandel	Bram	-1	Jesper	0	-0.5000
doping	1965_1969	wangedrag	Bram	-1	Jesper	0	-0.5000
doping	1965_1969	watergebied	Bram	-1	Jesper	0	-0.5000
doping	1965_1969	wegenbouwprogramma	Bram	-1	Jesper	0	-0.5000
doping	1965_1969	wekaminen	Bram	-1	Jesper	2	0.5000
doping	1965_1969	werkgelegenheidsprobleem	Bram	-1	Jesper	0	-0.5000
doping	1965_1969	werkloosheidsprobleem	Bram	-1	Jesper	0	-0.5000
doping	1965_1969	werkweigering	Bram	-1	Jesper	0	-0.5000
doping	1965_1969	ziekenfondswezen	Bram	-1	Jesper	0	-0.5000
doping	1965_1969	zoetmiddel	Bram	-1	Jesper	0	-0.5000
doping	1970_1974	amfetamine	Bram	2	Jesper	2	2.0000
doping	1970_1974	amfetaminen	Bram	2	Jesper	2	2.0000
doping	1970_1974	amfetamines	Bram	2	Jesper	2	2.0000
doping	1970_1974	amphetamine	Bram	2	Jesper	2	2.0000
doping	1970_1974	amphetaminen	Bram	2	Jesper	2	2.0000
doping	1970_1974	anabole	Bram	2	Jesper	0	1.0000
doping	1970_1974	anabolen	Bram	2	Jesper	1	1.5000
doping	1970_1974	anabolica	Bram	2	Jesper	1	1.5000
doping	1970_1974	antibiotica	Bram	-1	Jesper	1	0.0000
doping	1970_1974	antibioticum	Bram	-1	Jesper	1	0.0000
doping	1970_1974	antistoffen	Bram	-1	Jesper	0	-0.5000
doping	1970_1974	armoedevraagstuk	Bram	-1	Jesper	0	-0.5000
doping	1970_1974	atheisme	Bram	-1	Jesper	0	-0.5000
doping	1970_1974	atlasgebergte	Bram	-1	Jesper	0	-0.5000
doping	1970_1974	bandbreuk	Bram	-1	Jesper	0	-0.5000
doping	1970_1974	barbituraten	Bram	-1	Jesper	0	-0.5000
doping	1970_1974	belediging	Bram	-1	Jesper	0	-0.5000
doping	1970_1974	benzinegebrek	Bram	-1	Jesper	0	-0.5000
doping	1970_1974	bestrijdingsmiddel	Bram	-1	Jesper	0	-0.5000
doping	1970_1974	boeking	Bram	-1	Jesper	0	-0.5000
doping	1970_1974	carcinogene	Bram	-1	Jesper	0	-0.5000
doping	1970_1974	clomipheen	Bram	-1	Jesper	0	-0.5000
doping	1970_1974	contractbreuk	Bram	-1	Jesper	0	-0.5000
doping	1970_1974	coramine	Bram	-1	Jesper	2	0.5000
doping	1970_1974	corticosteroïden	Bram	-1	Jesper	0	-0.5000
doping	1970_1974	dagtoerisme	Bram	-1	Jesper	0	-0.5000
doping	1970_1974	dienstverzuim	Bram	-1	Jesper	0	-0.5000
doping	1970_1974	dope	Bram	2	Jesper	2	2.0000
doping	1970_1974	doping	Bram	2	Jesper	2	2.0000
doping	1970_1974	dopingcontrole	Bram	2	Jesper	0	1.0000
doping	1970_1974	dopinggebruik	Bram	2	Jesper	0	1.0000
doping	1970_1974	dopingmiddel	Bram	2	Jesper	2	2.0000
doping	1970_1974	dopingonderzoek	Bram	2	Jesper	0	1.0000
doping	1970_1974	dopingreglementen	Bram	2	Jesper	0	1.0000
doping	1970_1974	druggebruik	Bram	2	Jesper	0	1.0000
doping	1970_1974	drugs	Bram	2	Jesper	2	2.0000
doping	1970_1974	duraboline	Bram	-1	Jesper	2	0.5000
doping	1970_1974	efedrine	Bram	-1	Jesper	2	0.5000
doping	1970_1974	enzym	Bram	-1	Jesper	0	-0.5000
doping	1970_1974	enzymen	Bram	-1	Jesper	0	-0.5000
doping	1970_1974	ephedrine	Bram	-1	Jesper	2	0.5000
doping	1970_1974	etherpiraterij	Bram	-1	Jesper	0	-0.5000
doping	1970_1974	evolutionisme	Bram	-1	Jesper	0	-0.5000
doping	1970_1974	fenacetine	Bram	-1	Jesper	0	-0.5000
doping	1970_1974	francobewind	Bram	-1	Jesper	0	-0.5000
doping	1970_1974	francoregiem	Bram	-1	Jesper	0	-0.5000
doping	1970_1974	fraude	Bram	-1	Jesper	0	-0.5000
doping	1970_1974	gedrogeerd	Bram	-1	Jesper	0	-0.5000
doping	1970_1974	geneesmiddel	Bram	-1	Jesper	1	0.0000
doping	1970_1974	geneesmiddelen	Bram	-1	Jesper	1	0.0000
doping	1970_1974	grensoverschrijding	Bram	-1	Jesper	0	-0.5000
doping	1970_1974	hallucinogene	Bram	-1	Jesper	0	-0.5000
doping	1970_1974	hallucinogenen	Bram	-1	Jesper	0	-0.5000
doping	1970_1974	hennepprodukten	Bram	-1	Jesper	0	-0.5000
doping	1970_1974	hiernumaals	Bram	-1	Jesper	0	-0.5000
doping	1970_1974	hormonen	Bram	-1	Jesper	0	-0.5000
doping	1970_1974	hormonoïden	Bram	-1	Jesper	2	0.5000
doping	1970_1974	hormoon	Bram	-1	Jesper	0	-0.5000
doping	1970_1974	hormoonpreparaat	Bram	-1	Jesper	2	0.5000
doping	1970_1974	hormoonpreparaten	Bram	-1	Jesper	2	0.5000
doping	1970_1974	huisvredebreuk	Bram	-1	Jesper	0	-0.5000
doping	1970_1974	imipramine	Bram	-1	Jesper	2	0.5000
doping	1970_1974	insubordinatie	Bram	-1	Jesper	0	-0.5000
doping	1970_1974	insuline	Bram	-1	Jesper	0	-0.5000
doping	1970_1974	interferon	Bram	-1	Jesper	0	-0.5000
doping	1970_1974	juveniel	Bram	-1	Jesper	0	-0.5000
doping	1970_1974	kalmeringsmiddelen	Bram	-1	Jesper	0	-0.5000
doping	1970_1974	kinderbeschermingswerk	Bram	-1	Jesper	0	-0.5000
doping	1970_1974	laxeermiddelen	Bram	-1	Jesper	0	-0.5000
doping	1970_1974	liefdegebod	Bram	-1	Jesper	0	-0.5000
doping	1970_1974	lokaalvredebreuk	Bram	-1	Jesper	0	-0.5000
doping	1970_1974	lsd	Bram	-1	Jesper	1	0.0000
doping	1970_1974	luminal	Bram	-1	Jesper	0	-0.5000
doping	1970_1974	machinepech	Bram	-1	Jesper	0	-0.5000
doping	1970_1974	mastbreuk	Bram	-1	Jesper	0	-0.5000
doping	1970_1974	materiaalpech	Bram	-1	Jesper	0	-0.5000
doping	1970_1974	meclizine	Bram	-1	Jesper	2	0.5000
doping	1970_1974	mededaderschap	Bram	-1	Jesper	0	-0.5000
doping	1970_1974	medicament	Bram	-1	Jesper	2	0.5000
doping	1970_1974	medicijnen	Bram	-1	Jesper	0	-0.5000
doping	1970_1974	meineed	Bram	-1	Jesper	0	-0.5000
doping	1970_1974	mescaline	Bram	-1	Jesper	0	-0.5000
doping	1970_1974	middeln	Bram	-1	Jesper	0	-0.5000
doping	1970_1974	narcotica	Bram	-1	Jesper	2	0.5000
doping	1970_1974	natrappen	Bram	-1	Jesper	0	-0.5000
doping	1970_1974	natriumfluoride	Bram	-1	Jesper	0	-0.5000
doping	1970_1974	neusdruppels	Bram	-1	Jesper	0	-0.5000
doping	1970_1974	nitriet	Bram	-1	Jesper	0	-0.5000
doping	1970_1974	nortestosteron	Bram	-1	Jesper	0	-0.5000
doping	1970_1974	obsceniteit	Bram	-1	Jesper	0	-0.5000
doping	1970_1974	oestrogeen	Bram	-1	Jesper	0	-0.5000
doping	1970_1974	officierencorps	Bram	-1	Jesper	0	-0.5000
doping	1970_1974	omkoperij	Bram	-1	Jesper	0	-0.5000
doping	1970_1974	onderuithalen	Bram	-1	Jesper	0	-0.5000
doping	1970_1974	oneigenlijk	Bram	-1	Jesper	0	-0.5000
doping	1970_1974	ongeoorloofde	Bram	-1	Jesper	0	-0.5000
doping	1970_1974	onkruidbestrijdingsmiddel	Bram	-1	Jesper	0	-0.5000
doping	1970_1974	onoirbare	Bram	-1	Jesper	0	-0.5000
doping	1970_1974	onoordeelkundig	Bram	-1	Jesper	0	-0.5000
doping	1970_1974	oorlogsrecht	Bram	-1	Jesper	0	-0.5000
doping	1970_1974	openiyke	Bram	-1	Jesper	0	-0.5000
doping	1970_1974	opiaten	Bram	2	Jesper	1	1.5000
doping	1970_1974	opiumwet	Bram	-1	Jesper	0	-0.5000
doping	1970_1974	oplichterij	Bram	-1	Jesper	0	-0.5000
doping	1970_1974	opruiing	Bram	-1	Jesper	0	-0.5000
doping	1970_1974	ordeverstoring	Bram	-1	Jesper	0	-0.5000
doping	1970_1974	overmatig	Bram	-1	Jesper	0	-0.5000
doping	1970_1974	overtreding	Bram	-1	Jesper	0	-0.5000
doping	1970_1974	overtredingen	Bram	-1	Jesper	0	-0.5000
doping	1970_1974	pendrey	Bram	-1	Jesper	0	-0.5000
doping	1970_1974	pepmiddelen	Bram	-1	Jesper	2	0.5000
doping	1970_1974	peppillen	Bram	-1	Jesper	2	0.5000
doping	1970_1974	pervetine	Bram	-1	Jesper	2	0.5000
doping	1970_1974	pijnstillers	Bram	-1	Jesper	1	0.0000
doping	1970_1974	preparaat	Bram	-1	Jesper	2	0.5000
doping	1970_1974	preparaten	Bram	-1	Jesper	0	-0.5000
doping	1970_1974	proefdier	Bram	-1	Jesper	0	-0.5000
doping	1970_1974	progesteron	Bram	-1	Jesper	0	-0.5000
doping	1970_1974	prostaglandine	Bram	-1	Jesper	0	-0.5000
doping	1970_1974	psychofarmaca	Bram	-1	Jesper	0	-0.5000
doping	1970_1974	rudic	Bram	-1	Jesper	0	-0.5000
doping	1970_1974	samenscholingsverbod	Bram	-1	Jesper	0	-0.5000
doping	1970_1974	serum	Bram	-1	Jesper	0	-0.5000
doping	1970_1974	slaapmiddelen	Bram	-1	Jesper	0	-0.5000
doping	1970_1974	smaadschrift	Bram	-1	Jesper	0	-0.5000
doping	1970_1974	softdrugs	Bram	2	Jesper	0	1.0000
doping	1970_1974	spelbederf	Bram	-1	Jesper	0	-0.5000
doping	1970_1974	spierversterkende	Bram	-1	Jesper	0	-0.5000
doping	1970_1974	spijkerbanden	Bram	-1	Jesper	0	-0.5000
doping	1970_1974	staatsgezag	Bram	-1	Jesper	0	-0.5000
doping	1970_1974	steroiden	Bram	2	Jesper	2	2.0000
doping	1970_1974	stimul	Bram	-1	Jesper	0	-0.5000
doping	1970_1974	stimulantia	Bram	-1	Jesper	2	0.5000
doping	1970_1974	stimulerende	Bram	-1	Jesper	0	-0.5000
doping	1970_1974	stoffen	Bram	-1	Jesper	0	-0.5000
doping	1970_1974	streekeigene	Bram	-1	Jesper	0	-0.5000
doping	1970_1974	strychnine	Bram	-1	Jesper	2	0.5000
doping	1970_1974	testosteron	Bram	-1	Jesper	2	0.5000
doping	1970_1974	tienstammenrijk	Bram	-1	Jesper	0	-0.5000
doping	1970_1974	tijdoverschrijding	Bram	-1	Jesper	0	-0.5000
doping	1970_1974	tijdsoverschrijding	Bram	-1	Jesper	0	-0.5000
doping	1970_1974	tranquilizers	Bram	-1	Jesper	1	0.0000
doping	1970_1974	tranquillizers	Bram	-1	Jesper	1	0.0000
doping	1970_1974	uitwisbare	Bram	-1	Jesper	0	-0.5000
doping	1970_1974	vaccin	Bram	-1	Jesper	0	-0.5000
doping	1970_1974	veelvuldig	Bram	-1	Jesper	0	-0.5000
doping	1970_1974	veelvuldigst	Bram	-1	Jesper	0	-0.5000
doping	1970_1974	veengebied	Bram	-1	Jesper	0	-0.5000
doping	1970_1974	verdovende	Bram	-1	Jesper	0	-0.5000
doping	1970_1974	verslavende	Bram	-1	Jesper	0	-0.5000
doping	1970_1974	verworvene	Bram	-1	Jesper	0	-0.5000
doping	1970_1974	verzekeringspakket	Bram	-1	Jesper	0	-0.5000
doping	1970_1974	voorbehoedmiddel	Bram	-1	Jesper	0	-0.5000
doping	1970_1974	voorbehoedmiddelen	Bram	-1	Jesper	0	-0.5000
doping	1970_1974	voorwetenschap	Bram	-1	Jesper	0	-0.5000
doping	1970_1974	vrouwenhandel	Bram	-1	Jesper	0	-0.5000
doping	1970_1974	wangedrag	Bram	-1	Jesper	0	-0.5000
doping	1970_1974	wekaminen	Bram	-1	Jesper	2	0.5000
doping	1970_1974	werkweigering	Bram	-1	Jesper	0	-0.5000
doping	1970_1974	wetsovertreding	Bram	-1	Jesper	0	-0.5000
doping	1970_1974	ziekenfondswezen	Bram	-1	Jesper	0	-0.5000
doping	1970_1974	zoetmiddel	Bram	-1	Jesper	0	-0.5000
doping	1970_1974	zuiveringsmethoden	Bram	-1	Jesper	0	-0.5000
doping	1975_1979	amfetamine	Bram	2	Jesper	2	2.0000
doping	1975_1979	amfetamines	Bram	2	Jesper	2	2.0000
doping	1975_1979	amphetaminen	Bram	2	Jesper	2	2.0000
doping	1975_1979	anabole	Bram	2	Jesper	0	1.0000
doping	1975_1979	anabolen	Bram	2	Jesper	2	2.0000
doping	1975_1979	anabolica	Bram	2	Jesper	2	2.0000
doping	1975_1979	antibiotica	Bram	-1	Jesper	1	0.0000
doping	1975_1979	antibioticum	Bram	-1	Jesper	1	0.0000
doping	1975_1979	antistoffen	Bram	-1	Jesper	0	-0.5000
doping	1975_1979	barbituraten	Bram	-1	Jesper	0	-0.5000
doping	1975_1979	bestrijdingsmiddel	Bram	-1	Jesper	0	-0.5000
doping	1975_1979	bloeddoping	Bram	2	Jesper	0	1.0000
doping	1975_1979	chequeboekje	Bram	-1	Jesper	0	-0.5000
doping	1975_1979	codeïne	Bram	-1	Jesper	0	-0.5000
doping	1975_1979	corticosteroïden	Bram	-1	Jesper	1	0.0000
doping	1975_1979	dope	Bram	2	Jesper	2	2.0000
doping	1975_1979	doping	Bram	2	Jesper	2	2.0000
doping	1975_1979	dopingcontrole	Bram	2	Jesper	0	1.0000
doping	1975_1979	dopinggebruik	Bram	2	Jesper	0	1.0000
doping	1975_1979	dopingmiddel	Bram	2	Jesper	2	2.0000
doping	1975_1979	druggebruik	Bram	2	Jesper	0	1.0000
doping	1975_1979	drugs	Bram	2	Jesper	1	1.5000
doping	1975_1979	duraboline	Bram	-1	Jesper	2	0.5000
doping	1975_1979	efedrine	Bram	-1	Jesper	2	0.5000
doping	1975_1979	enzym	Bram	-1	Jesper	0	-0.5000
doping	1975_1979	enzymen	Bram	-1	Jesper	0	-0.5000
doping	1975_1979	ephedrine	Bram	-1	Jesper	2	0.5000
doping	1975_1979	fenacetine	Bram	-1	Jesper	0	-0.5000
doping	1975_1979	fraude	Bram	-1	Jesper	0	-0.5000
doping	1975_1979	gedrogeerd	Bram	-1	Jesper	0	-0.5000
doping	1975_1979	geduide	Bram	-1	Jesper	0	-0.5000
doping	1975_1979	geneesmiddel	Bram	-1	Jesper	0	-0.5000
doping	1975_1979	geneesmiddelen	Bram	-1	Jesper	0	-0.5000
doping	1975_1979	groeihormonen	Bram	-1	Jesper	0	-0.5000
doping	1975_1979	hallucinogene	Bram	-1	Jesper	0	-0.5000
doping	1975_1979	hennepprodukten	Bram	-1	Jesper	0	-0.5000
doping	1975_1979	hormonen	Bram	2	Jesper	0	1.0000
doping	1975_1979	hormoon	Bram	2	Jesper	0	1.0000
doping	1975_1979	hormoonpreparaat	Bram	-1	Jesper	2	0.5000
doping	1975_1979	hormoonpreparaten	Bram	-1	Jesper	2	0.5000
doping	1975_1979	imipramine	Bram	-1	Jesper	2	0.5000
doping	1975_1979	insubordinatie	Bram	-1	Jesper	0	-0.5000
doping	1975_1979	insuline	Bram	-1	Jesper	0	-0.5000
doping	1975_1979	kalmeringsmiddelen	Bram	-1	Jesper	0	-0.5000
doping	1975_1979	laxeermiddelen	Bram	-1	Jesper	0	-0.5000
doping	1975_1979	medicament	Bram	-1	Jesper	2	0.5000
doping	1975_1979	medicijnen	Bram	-1	Jesper	0	-0.5000
doping	1975_1979	mescaline	Bram	-1	Jesper	0	-0.5000
doping	1975_1979	nandrolon	Bram	-1	Jesper	0	-0.5000
doping	1975_1979	natriumfluoride	Bram	-1	Jesper	0	-0.5000
doping	1975_1979	nitriet	Bram	-1	Jesper	0	-0.5000
doping	1975_1979	nortestosteron	Bram	-1	Jesper	0	-0.5000
doping	1975_1979	obsceniteit	Bram	-1	Jesper	0	-0.5000
doping	1975_1979	oestradiol	Bram	-1	Jesper	2	0.5000
doping	1975_1979	oestrogeen	Bram	-1	Jesper	0	-0.5000
doping	1975_1979	omkoperij	Bram	-1	Jesper	0	-0.5000
doping	1975_1979	oneigenlijk	Bram	-1	Jesper	0	-0.5000
doping	1975_1979	ongeoorloofde	Bram	-1	Jesper	0	-0.5000
doping	1975_1979	onkruidbestrijdingsmiddel	Bram	-1	Jesper	0	-0.5000
doping	1975_1979	onoirbare	Bram	-1	Jesper	0	-0.5000
doping	1975_1979	onoordeelkundig	Bram	-1	Jesper	0	-0.5000
doping	1975_1979	opiaten	Bram	-1	Jesper	1	0.0000
doping	1975_1979	oplichterij	Bram	-1	Jesper	0	-0.5000
doping	1975_1979	overmatig	Bram	-1	Jesper	0	-0.5000
doping	1975_1979	overtreding	Bram	-1	Jesper	0	-0.5000
doping	1975_1979	overtredingen	Bram	-1	Jesper	0	-0.5000
doping	1975_1979	pepmiddelen	Bram	-1	Jesper	2	0.5000
doping	1975_1979	peppillen	Bram	-1	Jesper	2	0.5000
doping	1975_1979	pervetine	Bram	-1	Jesper	2	0.5000
doping	1975_1979	pijnstillers	Bram	-1	Jesper	1	0.0000
doping	1975_1979	preparaat	Bram	-1	Jesper	2	0.5000
doping	1975_1979	preparaten	Bram	-1	Jesper	0	-0.5000
doping	1975_1979	probenicide	Bram	-1	Jesper	0	-0.5000
doping	1975_1979	proefdier	Bram	-1	Jesper	0	-0.5000
doping	1975_1979	progesteron	Bram	-1	Jesper	0	-0.5000
doping	1975_1979	prostaglandine	Bram	-1	Jesper	0	-0.5000
doping	1975_1979	psychofarmaca	Bram	-1	Jesper	0	-0.5000
doping	1975_1979	rudic	Bram	-1	Jesper	0	-0.5000
doping	1975_1979	samenscholingsverbod	Bram	-1	Jesper	0	-0.5000
doping	1975_1979	serum	Bram	-1	Jesper	0	-0.5000
doping	1975_1979	slaapmiddelen	Bram	-1	Jesper	0	-0.5000
doping	1975_1979	spelverruwing	Bram	-1	Jesper	0	-0.5000
doping	1975_1979	spierversterkende	Bram	-1	Jesper	0	-0.5000
doping	1975_1979	spierversterkers	Bram	-1	Jesper	0	-0.5000
doping	1975_1979	spijkerbanden	Bram	-1	Jesper	0	-0.5000
doping	1975_1979	steroiden	Bram	-1	Jesper	2	0.5000
doping	1975_1979	sterorden	Bram	-1	Jesper	0	-0.5000
doping	1975_1979	steroïden	Bram	-1	Jesper	2	0.5000
doping	1975_1979	stimul	Bram	-1	Jesper	0	-0.5000
doping	1975_1979	stimulantia	Bram	-1	Jesper	2	0.5000
doping	1975_1979	stimulerende	Bram	-1	Jesper	0	-0.5000
doping	1975_1979	stoffen	Bram	-1	Jesper	0	-0.5000
doping	1975_1979	strychnine	Bram	-1	Jesper	2	0.5000
doping	1975_1979	testosteron	Bram	-1	Jesper	2	0.5000
doping	1975_1979	tranquillizers	Bram	-1	Jesper	1	0.0000
doping	1975_1979	vaccin	Bram	-1	Jesper	0	-0.5000
doping	1975_1979	veelvuldig	Bram	-1	Jesper	0	-0.5000
doping	1975_1979	voorbehoedmiddelen	Bram	-1	Jesper	0	-0.5000
doping	1975_1979	voorwetenschap	Bram	-1	Jesper	0	-0.5000
doping	1975_1979	vrouwenhandel	Bram	-1	Jesper	0	-0.5000
doping	1975_1979	wekaminen	Bram	-1	Jesper	2	0.5000
doping	1975_1979	wetsovertreding	Bram	-1	Jesper	0	-0.5000
doping	1975_1979	zuiveringsmethoden	Bram	-1	Jesper	0	-0.5000
doping	1980_1984	amfetamines	Bram	2	Jesper	2	2.0000
doping	1980_1984	anabole	Bram	2	Jesper	0	1.0000
doping	1980_1984	anabolen	Bram	2	Jesper	2	2.0000
doping	1980_1984	anabolica	Bram	2	Jesper	2	2.0000
doping	1980_1984	antibiotica	Bram	-1	Jesper	1	0.0000
doping	1980_1984	antibioticum	Bram	-1	Jesper	1	0.0000
doping	1980_1984	barbituraten	Bram	-1	Jesper	0	-0.5000
doping	1980_1984	bestrijdingsmiddel	Bram	-1	Jesper	0	-0.5000
doping	1980_1984	bloeddoping	Bram	-1	Jesper	0	-0.5000
doping	1980_1984	chequeboekje	Bram	-1	Jesper	0	-0.5000
doping	1980_1984	codeïne	Bram	-1	Jesper	0	-0.5000
doping	1980_1984	cortico	Bram	-1	Jesper	0	-0.5000
doping	1980_1984	corticosteroïden	Bram	-1	Jesper	2	0.5000
doping	1980_1984	dope	Bram	2	Jesper	2	2.0000
doping	1980_1984	doping	Bram	2	Jesper	2	2.0000
doping	1980_1984	dopingcontrole	Bram	2	Jesper	0	1.0000
doping	1980_1984	dopinggebruik	Bram	2	Jesper	0	1.0000
doping	1980_1984	dopingmiddel	Bram	2	Jesper	2	2.0000
doping	1980_1984	drugsgebruik	Bram	2	Jesper	0	1.0000
doping	1980_1984	efedrine	Bram	-1	Jesper	2	0.5000
doping	1980_1984	enzymen	Bram	-1	Jesper	0	-0.5000
doping	1980_1984	fenacetine	Bram	-1	Jesper	0	-0.5000
doping	1980_1984	geduide	Bram	-1	Jesper	0	-0.5000
doping	1980_1984	geneesmiddelen	Bram	-1	Jesper	0	-0.5000
doping	1980_1984	groeihormonen	Bram	-1	Jesper	2	0.5000
doping	1980_1984	hallucinogene	Bram	-1	Jesper	0	-0.5000
doping	1980_1984	hormonen	Bram	-1	Jesper	0	-0.5000
doping	1980_1984	hormoon	Bram	-1	Jesper	0	-0.5000
doping	1980_1984	hormoonpreparaat	Bram	-1	Jesper	2	0.5000
doping	1980_1984	hormoonpreparaten	Bram	-1	Jesper	2	0.5000
doping	1980_1984	insuline	Bram	-1	Jesper	0	-0.5000
doping	1980_1984	kalmeringsmiddelen	Bram	-1	Jesper	0	-0.5000
doping	1980_1984	laxeermiddelen	Bram	-1	Jesper	0	-0.5000
doping	1980_1984	medicijnen	Bram	-1	Jesper	0	-0.5000
doping	1980_1984	mescaline	Bram	-1	Jesper	0	-0.5000
doping	1980_1984	nandrolon	Bram	-1	Jesper	2	0.5000
doping	1980_1984	nitriet	Bram	-1	Jesper	0	-0.5000
doping	1980_1984	nortestosteron	Bram	-1	Jesper	0	-0.5000
doping	1980_1984	oestradiol	Bram	-1	Jesper	2	0.5000
doping	1980_1984	oestrogeen	Bram	-1	Jesper	0	-0.5000
doping	1980_1984	omkoperij	Bram	-1	Jesper	0	-0.5000
doping	1980_1984	ongeoorloofde	Bram	-1	Jesper	0	-0.5000
doping	1980_1984	opiaten	Bram	2	Jesper	0	1.0000
doping	1980_1984	pepmiddelen	Bram	-1	Jesper	1	0.0000
doping	1980_1984	pervetine	Bram	-1	Jesper	2	0.5000
doping	1980_1984	pijnstillers	Bram	-1	Jesper	0	-0.5000
doping	1980_1984	preparaat	Bram	-1	Jesper	2	0.5000
doping	1980_1984	preparaten	Bram	-1	Jesper	0	-0.5000
doping	1980_1984	probenecide	Bram	-1	Jesper	0	-0.5000
doping	1980_1984	probenicide	Bram	-1	Jesper	0	-0.5000
doping	1980_1984	progesteron	Bram	-1	Jesper	0	-0.5000
doping	1980_1984	prostaglandine	Bram	-1	Jesper	0	-0.5000
doping	1980_1984	psychofarmaca	Bram	-1	Jesper	0	-0.5000
doping	1980_1984	slaapmiddelen	Bram	-1	Jesper	0	-0.5000
doping	1980_1984	spelverruwing	Bram	-1	Jesper	0	-0.5000
doping	1980_1984	spierversterkende	Bram	-1	Jesper	0	-0.5000
doping	1980_1984	spierversterkers	Bram	-1	Jesper	0	-0.5000
doping	1980_1984	stanozolol	Bram	-1	Jesper	0	-0.5000
doping	1980_1984	steroiden	Bram	-1	Jesper	2	0.5000
doping	1980_1984	sterorden	Bram	-1	Jesper	0	-0.5000
doping	1980_1984	steroïden	Bram	-1	Jesper	2	0.5000
doping	1980_1984	stimul	Bram	-1	Jesper	0	-0.5000
doping	1980_1984	stimulantia	Bram	2	Jesper	2	2.0000
doping	1980_1984	stimulantie	Bram	-1	Jesper	0	-0.5000
doping	1980_1984	stimulerende	Bram	2	Jesper	0	1.0000
doping	1980_1984	stoffen	Bram	-1	Jesper	0	-0.5000
doping	1980_1984	strychnine	Bram	-1	Jesper	2	0.5000
doping	1980_1984	testosteron	Bram	-1	Jesper	2	0.5000
doping	1980_1984	veelvuldig	Bram	-1	Jesper	0	-0.5000
doping	1980_1984	voorbehoedmiddelen	Bram	-1	Jesper	0	-0.5000
doping	1980_1984	wangedrag	Bram	-1	Jesper	0	-0.5000
doping	1980_1984	wekaminen	Bram	-1	Jesper	2	0.5000
doping	1985_1989	anabole	Bram	2	Jesper	0	1.0000
doping	1985_1989	anabolen	Bram	2	Jesper	2	2.0000
doping	1985_1989	anabolica	Bram	2	Jesper	2	2.0000
doping	1985_1989	bloeddoping	Bram	2	Jesper	0	1.0000
doping	1985_1989	codeïne	Bram	-1	Jesper	0	-0.5000
doping	1985_1989	cortico	Bram	-1	Jesper	2	0.5000
doping	1985_1989	dope	Bram	2	Jesper	2	2.0000
doping	1985_1989	doping	Bram	2	Jesper	2	2.0000
doping	1985_1989	dopingcontrole	Bram	2	Jesper	0	1.0000
doping	1985_1989	dopinggebruik	Bram	2	Jesper	0	1.0000
doping	1985_1989	drugsgebruik	Bram	2	Jesper	0	1.0000
doping	1985_1989	efedrine	Bram	-1	Jesper	2	0.5000
doping	1985_1989	geduide	Bram	-1	Jesper	0	-0.5000
doping	1985_1989	groeihormonen	Bram	1	Jesper	2	1.5000
doping	1985_1989	hormonen	Bram	1	Jesper	0	0.5000
doping	1985_1989	hormoon	Bram	1	Jesper	0	0.5000
doping	1985_1989	hormoonpreparaat	Bram	1	Jesper	2	1.5000
doping	1985_1989	hormoonpreparaten	Bram	1	Jesper	2	1.5000
doping	1985_1989	insuline	Bram	-1	Jesper	0	-0.5000
doping	1985_1989	nandrolon	Bram	-1	Jesper	2	0.5000
doping	1985_1989	nortestosteron	Bram	-1	Jesper	2	0.5000
doping	1985_1989	oestradiol	Bram	-1	Jesper	2	0.5000
doping	1985_1989	ongeoorloofde	Bram	-1	Jesper	0	-0.5000
doping	1985_1989	pervetine	Bram	-1	Jesper	2	0.5000
doping	1985_1989	preparaten	Bram	-1	Jesper	0	-0.5000
doping	1985_1989	probenecide	Bram	-1	Jesper	2	0.5000
doping	1985_1989	probenicide	Bram	-1	Jesper	2	0.5000
doping	1985_1989	spierversterkende	Bram	-1	Jesper	0	-0.5000
doping	1985_1989	spierversterkers	Bram	-1	Jesper	2	0.5000
doping	1985_1989	stanozolol	Bram	-1	Jesper	2	0.5000
doping	1985_1989	steroiden	Bram	2	Jesper	2	2.0000
doping	1985_1989	steroïden	Bram	2	Jesper	2	2.0000
doping	1985_1989	stimulantia	Bram	2	Jesper	2	2.0000
doping	1985_1989	stimulantie	Bram	2	Jesper	0	1.0000
doping	1985_1989	testosteron	Bram	-1	Jesper	2	0.5000
doping	1985_1989	wangedrag	Bram	-1	Jesper	0	-0.5000
doping	1990_1994	anabole	Bram	2	Jesper	0	1.0000
doping	1990_1994	anabolen	Bram	2	Jesper	2	2.0000
doping	1990_1994	anabolica	Bram	2	Jesper	2	2.0000
doping	1990_1994	bloeddoping	Bram	2	Jesper	2	2.0000
doping	1990_1994	dope	Bram	2	Jesper	2	2.0000
doping	1990_1994	doping	Bram	2	Jesper	2	2.0000
doping	1990_1994	dopinggebruik	Bram	2	Jesper	0	1.0000
doping	1990_1994	efedrine	Bram	2	Jesper	2	2.0000
doping	1990_1994	pervetine	Bram	2	Jesper	2	2.0000
doping	1990_1994	probenecide	Bram	2	Jesper	2	2.0000
doping	1990_1994	spierversterkende	Bram	-1	Jesper	0	-0.5000
doping	1990_1994	steroïden	Bram	2	Jesper	2	2.0000
doping	1990_1994	stimulantia	Bram	2	Jesper	2	2.0000
doping	1990_1994	testosteron	Bram	-1	Jesper	2	0.5000
